{
"Bezpečnost státu a právní ochrana": {
	"Civilní připravenost na krizové stavy": {
		"Ostatní správa v oblasti krizového řízení": 10916449.1,
		"Ostatní záležitosti civilní připravenosti na krizové stavy": 57415520.57
	},
	"Požární ochrana a integrovaný záchranný systém": {
		"Operační a informační střediska integrovaného záchranného systému.": 30000,
		"Ostatní složky a činnosti integrovaného záchranného systému": 1240000,
		"Ostatní záležitosti požární ochrany": 85000,
		"Ostatní záležitosti požární ochrany a integrovaného záchranného systému": 64000,
		"Požární ochrana - dobrovolná část": 22740385
		}
	},
"Průmyslová a ostatní odvětví hospodářství": {
	"Doprava": {
		"Bezpečnost silničního provozu": 3867161.86,
		"Letiště": 132732844.34,
		"Ostatní záležitosti pozemních komunikací": 2132863.37,
		"Ostatní záležitosti v dopravě": 10735678,
		"Provoz veřejné silniční dopravy": 425857009.46,
		"Provoz veřejné železniční dopravy": 579427326,
		"Silnice": 2511293754.6,
		"Výzkum a vývoj v dopravě": 32503.78
	},
	"Průmysl, stavebnictví, obchod a služby": {
		"Cestovní ruch": 16146432.18,
		"Podpora podnikání a inovací": 1100000,
		"Vnitřní obchod": 5633001.01,
		"Úspora energie a obnovitelné zdroje": 4389707.2
	},
	"Vodní hospodářství": {
		"Odvádění a čištění odpadních vod a nakládání s kaly": 14106726,
		"Ostatní správa ve vodním hospodářství": 235539.54,
		"Ostatní záležitosti vodního hospodářství": 161051,
		"Pitná voda": 29386436.5,
		"Úpravy vodohospodářsky významných a vodárenských toků": 500000
	},
	"Všeobecné hospodářské záležitosti a ostatní ekonomické funkce": {
		"Podpora podnikání": 11000000
		}
	},
"Služby pro obyvatelstvo": {
	"Bydlení, komunální služby a územní rozvoj": {
		"Komunální služby a územní rozvoj jinde nezařazené": 93998571.2,
		"Pohřebnictví": 298902,
		"Územní plánování": 4223217.04,
		"Územní rozvoj": 134569990.58
	},
	"Kultura, církve a sdělovací prostředky": {
		"Divadelní činnost": 12707000,
		"Hudební činnost": 25823000,
		"Ostatní záležitosti kultury": 37649782.95,
		"Ostatní záležitosti kultury, církví a sdělovacích prostředků": 110000,
		"Pořízení, zachování a obnova hodnot místního kulturního, národního a historického povědomí": 3467848,
		"Zachování a obnova kulturních památek": 15262063.13,
		"Činnosti knihovnické": 54588000,
		"Činnosti muzeí a galerií": 135670956.67
	},
	"Ochrana životního prostředí": {
		"Chráněné části přírody": 13481294.5,
		"Ekologická výchova a osvěta": 3569432.97,
		"Ochrana druhů a stanovišť": 61570700.81,
		"Ostatní nakládání s odpady": 5248,
		"Ostatní správa v ochraně životního prostředí": 12298492,
		"Prevence vzniku odpadů": 1094121.46,
		"Protierozní, protilavinová a protipožární ochrana": 2567631,
		"Změny technologií vytápění": 475646.8
	},
	"Tělovýchova a zájmová činnost": {
		"Ostatní tělovýchovná činnost": 23649548.83,
		"Ostatní zájmová činnost a rekreace": 405000,
		"Sportovní zařízení v majetku obcí": 4200372,
		"Využití volného času dětí a mládeže": 79438539.52
	},
	"Vzdělávání a školské služby": {
		"Domovy mládeže": 49861370.9,
		"Dětské domovy": 92801767,
		"Gymnazia": 481508988.33,
		"Jazykové školy s právem státní jazykové zkoušky": 32853,
		"Konzervatoře": 26078566,
		"Mateřské školy": 603008770.08,
		"Mateřské školy pro děti se speciálními vzdělávacími potřebami": 16106482,
		"Mezinárodní spolupráce ve vzdělávání": 20000,
		"Ostatní zařízení související s výchovou a vzděláváním mládeže": 2975021.8,
		"Ostatní záležitosti vzdělávání": 73315924.75,
		"První stupeň základních škol": 281592212,
		"Střediska praktického vyučování a školní hospodářství": 8275345.29,
		"Střední odborné školy": 1012429198.85,
		"Střední školy": 4875147.01,
		"Střední školy a konzervatoře pro žáky se speciálními vzdělávacími potřebami": 1606893,
		"Střední školy poskytující střední vzdělání s výučním listem": 802122440.48,
		"Vysoké školy": 100000,
		"Vyšší odborné školy": 59019143.47,
		"Zařízení výchovného poradenství": 32875342,
		"Základní umělecké školy": 244736221.12,
		"Základní školy": 2324627828.54,
		"Základní školy pro žáky se speciálními vzdělávacími potřebami": 229932214.51,
		"Školní družiny a kluby": 3649393,
		"Školní stravování": 14998101
	},
	"Zdravotnictví": {
		"Lékařská služba první pomoci": 5999000,
		"Ostatní ambulantní péče": 891005,
		"Ostatní nemocnice": 212051084.14,
		"Ostatní speciální zdravotnická péče": 4372179.37,
		"Ostatní zdravotnická zařízení a služby pro zdravotnictví": 897301,
		"Ostatní činnost ve zdravotnictví": 5611363.01,
		"Prevence před drogami, alkoholem, nikotinem aj. závislostmi": 7628000,
		"Specializovaná ambulantní zdravotní péče": 2789933,
		"Stomatologická péče": 98324,
		"Zdravotnická záchranná služba": 369886557.12
		}
	},
"Sociální věci a politika zaměstnanosti": {
	"Sociální služby a společné činnosti v sociálním zabezpečení a politice zaměstnanosti": {
		"Azylové domy, nízkoprahová denní centra a noclehárny": 9613497,
		"Centra sociálně rehabilitačních služeb": 70159635.32,
		"Chráněné bydlení": 18934000,
		"Denní stacionáře a centra denních služeb": 19610480,
		"Domovy pro osoby se zdravotním postižením a domovy se zvláštním režimem": 133406718.13,
		"Domovy pro seniory": 282567731.65,
		"Domy na půl cesty": 240000,
		"Krizová pomoc": 2753850,
		"Nízkoprahová zařízení pro děti a mládež": 15888860,
		"Odborné sociální poradenství": 15080125,
		"Osobní asistence, pečovatelská služba a podpora samostatného bydlení": 86504920,
		"Ostatní služby a činnosti v oblasti sociální prevence": 9009860,
		"Ostatní služby a činnosti v oblasti sociální péče": 8423000,
		"Ostatní sociální péče a pomoc dětem a mládeži": 834741.99,
		"Ostatní sociální péče a pomoc ostatním skupinám obyvatelstva": 85600,
		"Ostatní sociální péče a pomoc rodině a manželství": 2179059.91,
		"Ostatní správa v sociálním zabezpečení a politice zaměstnanosti": 614673.37,
		"Ostatní záležitosti sociálních věcí a politiky zaměstnanosti": 53200696.1,
		"Průvodcovské a předčitatelské služby": 2130360,
		"Raná péče a sociálně aktivizační služby pro rodiny s dětmi": 6807997,
		"Služby následné péče, terapeutické komunity a kontaktní centra": 4530200,
		"Sociální pomoc osobám v hmotné nouzi a občanům sociálně nepřizpůsobivým": 700000,
		"Sociální poradenství pro staré občany": 14849386.45,
		"Sociální péče a pomoc přistěhovalcům a vybraným etnikům": 14400,
		"Sociální služby poskytované ve zdravotnických zařízeních ústavní péče": 2814300,
		"Sociálně terapeutické dílny": 3634200,
		"Terénní programy": 2250426,
		"Tísňová péče": 811900,
		"Týdenní stacionáře": 11045245,
		"Zařízení pro děti vyžadující okamžitou pomoc": 14433960
		}
	},
"Všeobecná veřejná správa a služby": {
	"Finanční operace": {
		"Obecné příjmy a výdaje z finančních operací": 3884179.52,
		"Ostatní finanční operace": 9692922.3,
		"Pojištění funkčně nespecifikované": 35163973
	},
	"Jiné veřejné služby a činnosti": {
		"Mezinárodní spolupráce (jinde nezařazená)": 794848.03
	},
	"Ostatní činnosti": {
		"Finanční vypořádání minulých let": 18121268.9,
		"Ostatní činnosti jinde nezařazené": 38130663.96
	},
	"Státní moc, státní správa, územní samospráva a politické strany": {
		"Volby do zastupitelstev územních samosprávných celků": 20128,
		"Zastupitelstva krajů": 23397215.39,
		"Činnost regionální správy": 351123059.38
		}
	},
"Zemědělství, lesní hospodářství a rybářství": {
	"Zemědělství, lesní hospodářství a rybářství": {
		"Celospolečenské funkce lesů": 867069,
		"Ostatní výdaje na lesní hospodářství": 131193,
		"Ostatní zemědělská a potravinářská činnost a rozvoj": 2364154,
		"Ostatní záležitosti regulace zemědělské produkce, organizace zemědělského trhu a poskytování podpor": 146983,
		"Ozdravování hospodářských zvířat, polních a speciálních plodin a zvláštní veterinární péče": 460014,
		"Pěstební činnost": 6025786,
		"Rybářství": 856450
		}
	}
}
