"Organizace..název.","Rok..kód.","Skupina.paragrafů..název.","Oddíl.paragrafů..název.","Paragraf..název.","Výsledek.od.počátku.roku"
NA,2013,"Bezpečnost státu a právní ochrana","Bezpečnost a veřejný pořádek","Bezpečnost a veřejný pořádek",395139
NA,NA,NA,"Civilní připravenost na krizové stavy","Ostatní správa v oblasti krizového řízení",5109871.1
NA,NA,NA,NA,"Ostatní záležitosti civilní připravenosti na krizové stavy",77516030.4
NA,NA,NA,"Požární ochrana a integrovaný záchranný systém","Operační a informační střediska integrovaného záchranného systému.",142287
NA,NA,NA,NA,"Ostatní složky a činnosti integrovaného záchranného systému",1160000
NA,NA,NA,NA,"Ostatní záležitosti požární ochrany",778637.34
NA,NA,NA,NA,"Ostatní záležitosti požární ochrany a integrovaného záchranného systému",64000
NA,NA,NA,NA,"Požární ochrana - dobrovolná část",24197972.39
NA,NA,"Průmyslová a ostatní odvětví hospodářství","Doprava","Bezpečnost silničního provozu",3317928.41
NA,NA,NA,NA,"Letiště",40970951.51
NA,NA,NA,NA,"Ostatní záležitosti pozemních komunikací",757743
NA,NA,NA,NA,"Ostatní záležitosti v dopravě",9203221.5
NA,NA,NA,NA,"Provoz veřejné silniční dopravy",409259487.92
NA,NA,NA,NA,"Provoz veřejné železniční dopravy",550314669
NA,NA,NA,NA,"Silnice",1140385947.48
NA,NA,NA,NA,"Výzkum a vývoj v dopravě",1165700
NA,NA,NA,"Průmysl, stavebnictví, obchod a služby","Cestovní ruch",10049668.36
NA,NA,NA,NA,"Podpora podnikání a inovací",1257652
NA,NA,NA,NA,"Vnitřní obchod",3053123.41
NA,NA,NA,NA,"Úspora energie a obnovitelné zdroje",295200
NA,NA,NA,"Vodní hospodářství","Odvádění a čištění odpadních vod a nakládání s kaly",10551747
NA,NA,NA,NA,"Ostatní správa ve vodním hospodářství",119000
NA,NA,NA,NA,"Pitná voda",24266121.5
NA,NA,NA,"Všeobecné hospodářské záležitosti a ostatní ekonomické funkce","Mezinárodní spolupráce ve všeobecných hospodářských záležitostech.",1891692
NA,NA,NA,NA,"Podpora podnikání",7337466
NA,NA,NA,NA,"Výzkum a vývoj v oblasti všeobecných hospodářských záležitostí",16538000
NA,NA,"Služby pro obyvatelstvo","Bydlení, komunální služby a územní rozvoj","Komunální služby a územní rozvoj jinde nezařazené",90158237.38
NA,NA,NA,NA,"Pohřebnictví",1058582
NA,NA,NA,NA,"Územní plánování",4371951.4
NA,NA,NA,NA,"Územní rozvoj",105022884.9
NA,NA,NA,"Kultura, církve a sdělovací prostředky","Divadelní činnost",12995995
NA,NA,NA,NA,"Filmová tvorba, distribuce, kina a shromažďování audiovizuálních archiválií",100000
NA,NA,NA,NA,"Hudební činnost",18876333
NA,NA,NA,NA,"Ostatní záležitosti kultury",19434133.14
NA,NA,NA,NA,"Ostatní záležitosti kultury, církví a sdělovacích prostředků",166220
NA,NA,NA,NA,"Pořízení, zachování a obnova hodnot místního kulturního, národního a historického povědomí",3997858
NA,NA,NA,NA,"Vydavatelská činnost",310000
NA,NA,NA,NA,"Výstavní činnosti v kultuře",1557406
NA,NA,NA,NA,"Zachování a obnova kulturních památek",15866773
NA,NA,NA,NA,"Činnosti knihovnické",51546000
NA,NA,NA,NA,"Činnosti muzeí a galerií",123893241.08
NA,NA,NA,NA,"Činnosti registrovaných církví a náboženských společností",1925644
NA,NA,NA,"Ochrana životního prostředí","Chráněné části přírody",47666272.69
NA,NA,NA,NA,"Ekologická výchova a osvěta",1442921.86
NA,NA,NA,NA,"Ochrana druhů a stanovišť",52913055.63
NA,NA,NA,NA,"Ostatní správa v ochraně životního prostředí",33894016
NA,NA,NA,NA,"Ostatní činnosti k ochraně proti záření",146932
NA,NA,NA,NA,"Ostatní činnosti k ochraně přírody a krajiny",91630
NA,NA,NA,NA,"Prevence vzniku odpadů",1437719.11
NA,NA,NA,NA,"Protierozní, protilavinová a protipožární ochrana",2084355
NA,NA,NA,NA,"Změny technologií vytápění",10693
NA,NA,NA,"Ostatní výzkum a vývoj","Ostatní výzkum a vývoj odvětvově nespecifikovaný",138601
NA,NA,NA,"Tělovýchova a zájmová činnost","Ostatní tělovýchovná činnost",16040998.63
NA,NA,NA,NA,"Ostatní zájmová činnost a rekreace",4679358
NA,NA,NA,NA,"Sportovní zařízení v majetku obcí",6406375
NA,NA,NA,NA,"Využití volného času dětí a mládeže",63858177.92
NA,NA,NA,"Vzdělávání a školské služby","Domovy mládeže",38299572
NA,NA,NA,NA,"Gymnazia",415150108.56
NA,NA,NA,NA,"Konzervatoře",26443672.8
NA,NA,NA,NA,"Mateřské školy",567065150
NA,NA,NA,NA,"Mateřské školy pro děti se speciálními vzdělávacími potřebami",15213482
NA,NA,NA,NA,"Ostatní zařízení související s výchovou a vzděláváním mládeže",5379651.07
NA,NA,NA,NA,"Ostatní záležitosti vzdělávání",195782255.08
NA,NA,NA,NA,"Ostatní školní stravování",5985892
NA,NA,NA,NA,"První stupeň základních škol",260117031
NA,NA,NA,NA,"Střediska praktického vyučování a školní hospodářství",1041384
NA,NA,NA,NA,"Střední odborné školy",905333085.01
NA,NA,NA,NA,"Střední školy a konzervatoře pro žáky se speciálními vzdělávacími potřebami",1323670
NA,NA,NA,NA,"Střední školy poskytující střední vzdělání s výučním listem",852812713.95
NA,NA,NA,NA,"Vyšší odborné školy",52337419.34
NA,NA,NA,NA,"Výzkum, vývoj a inovace na vysokých školách",260000
NA,NA,NA,NA,"Zařízení výchovného poradenství",32212748
NA,NA,NA,NA,"Základní umělecké školy",222118924.82
NA,NA,NA,NA,"Základní školy",2118410375.59
NA,NA,NA,NA,"Základní školy pro žáky se speciálními vzdělávacími potřebami",213975693.4
NA,NA,NA,NA,"Školní družiny a kluby",3538003
NA,NA,NA,NA,"Školní stravování",15969733
NA,NA,NA,"Zdravotnictví","Lékařská služba první pomoci",5999000
NA,NA,NA,NA,"Ostatní nemocnice",348410714.78
NA,NA,NA,NA,"Ostatní speciální zdravotnická péče",4281531.15
NA,NA,NA,NA,"Ostatní zdravotnická zařízení a služby pro zdravotnictví",380000
NA,NA,NA,NA,"Ostatní činnost ve zdravotnictví",3375001.92
NA,NA,NA,NA,"Pomoc zdravotně postiženým a chronicky nemocným",95000
NA,NA,NA,NA,"Prevence před drogami, alkoholem, nikotinem aj. závislostmi",7099000
NA,NA,NA,NA,"Zdravotnická záchranná služba",298319320.4
NA,NA,"Sociální věci a politika zaměstnanosti","Sociální služby a společné činnosti v sociálním zabezpečení a politice zaměstnanosti","Centra sociálně rehabilitačních služeb",27060054.54
NA,NA,NA,NA,"Domovy pro osoby se zdravotním postižením a domovy se zvláštním režimem",24323211.02
NA,NA,NA,NA,"Domovy pro seniory",116242391.62
NA,NA,NA,NA,"Ostatní sociální péče a pomoc ostatním skupinám obyvatelstva",40000
NA,NA,NA,NA,"Ostatní sociální péče a pomoc rodině a manželství",3314143.79
NA,NA,NA,NA,"Ostatní záležitosti sociálních věcí a politiky zaměstnanosti",41595172.94
NA,NA,NA,NA,"Sociální pomoc osobám v souvislosti s živelní pohromou nebo požárem",39723
NA,NA,NA,NA,"Sociální poradenství pro staré občany",3440000
NA,NA,NA,NA,"Sociální péče a pomoc přistěhovalcům a vybraným etnikům",306300
NA,NA,NA,NA,"Týdenní stacionáře",4429459
NA,NA,NA,NA,"Zařízení pro děti vyžadující okamžitou pomoc",21397435
NA,NA,NA,NA,"Ústavy péče pro mládež",92380158
NA,NA,"Všeobecná veřejná správa a služby","Finanční operace","Obecné příjmy a výdaje z finančních operací",6502407.49
NA,NA,NA,NA,"Ostatní finanční operace",4559577.11
NA,NA,NA,NA,"Pojištění funkčně nespecifikované",33961299.98
NA,NA,NA,"Jiné veřejné služby a činnosti","Mezinárodní spolupráce (jinde nezařazená)",2789389.42
NA,NA,NA,"Ostatní činnosti","Finanční vypořádání minulých let",11310914.78
NA,NA,NA,NA,"Ostatní činnosti jinde nezařazené",22699465.56
NA,NA,NA,"Státní moc, státní správa, územní samospráva a politické strany","Volba prezidenta republiky",79881.68
NA,NA,NA,NA,"Volby do Parlamentu ČR",67422
NA,NA,NA,NA,"Volby do zastupitelstev územních samosprávných celků",5860
NA,NA,NA,NA,"Zastupitelstva krajů",25082201.68
NA,NA,NA,NA,"Činnost regionální správy",308749415.6
NA,NA,"Zemědělství, lesní hospodářství a rybářství","Zemědělství, lesní hospodářství a rybářství","Celospolečenské funkce lesů",379795
NA,NA,NA,NA,"Ostatní výdaje na lesní hospodářství",233961.65
NA,NA,NA,NA,"Ostatní zemědělská a potravinářská činnost a rozvoj",1237431
NA,NA,NA,NA,"Ostatní záležitosti regulace zemědělské produkce, organizace zemědělského trhu a poskytování podpor",690738
NA,NA,NA,NA,"Podpora ostatních produkčních činností",72400
NA,NA,NA,NA,"Pěstební činnost",17670591
NA,NA,NA,NA,"Rybářství",776825
