"Organizace..název.","Rok..kód.","Skupina.paragrafů..název.","Oddíl.paragrafů..název.","Paragraf..název.","Výsledek.od.počátku.roku"
NA,2014,"Bezpečnost státu a právní ochrana","Civilní připravenost na krizové stavy","Ostatní správa v oblasti krizového řízení",4988550.48
NA,NA,NA,NA,"Ostatní záležitosti civilní připravenosti na krizové stavy",6681000
NA,NA,NA,"Požární ochrana a integrovaný záchranný systém","Ostatní složky a činnosti integrovaného záchranného systému",1160000
NA,NA,NA,NA,"Ostatní záležitosti požární ochrany",85000
NA,NA,NA,NA,"Ostatní záležitosti požární ochrany a integrovaného záchranného systému",64000
NA,NA,NA,NA,"Požární ochrana - dobrovolná část",20511268.2
NA,NA,"Průmyslová a ostatní odvětví hospodářství","Doprava","Bezpečnost silničního provozu",3033759.32
NA,NA,NA,NA,"Letiště",64347955.84
NA,NA,NA,NA,"Ostatní záležitosti v dopravě",10078613.2
NA,NA,NA,NA,"Provoz veřejné silniční dopravy",427836658.69
NA,NA,NA,NA,"Provoz veřejné železniční dopravy",579160912
NA,NA,NA,NA,"Silnice",1549636827.28
NA,NA,NA,"Průmysl, stavebnictví, obchod a služby","Cestovní ruch",19410774.4
NA,NA,NA,NA,"Podpora podnikání a inovací",1429206
NA,NA,NA,NA,"Vnitřní obchod",2684359.96
NA,NA,NA,NA,"Úspora energie a obnovitelné zdroje",4051111
NA,NA,NA,"Vodní hospodářství","Odvádění a čištění odpadních vod a nakládání s kaly",14547118
NA,NA,NA,NA,"Ostatní správa ve vodním hospodářství",50000
NA,NA,NA,NA,"Ostatní záležitosti vodního hospodářství",161051
NA,NA,NA,NA,"Pitná voda",26740036
NA,NA,NA,"Všeobecné hospodářské záležitosti a ostatní ekonomické funkce","Mezinárodní spolupráce ve všeobecných hospodářských záležitostech.",1696898
NA,NA,NA,NA,"Podpora podnikání",1000000
NA,NA,NA,NA,"Výzkum a vývoj v oblasti všeobecných hospodářských záležitostí",75441206
NA,NA,"Služby pro obyvatelstvo","Bydlení, komunální služby a územní rozvoj","Komunální služby a územní rozvoj jinde nezařazené",94283787.69
NA,NA,NA,NA,"Pohřebnictví",1089194
NA,NA,NA,NA,"Územní plánování",4389123.4
NA,NA,NA,NA,"Územní rozvoj",63624966.49
NA,NA,NA,"Kultura, církve a sdělovací prostředky","Divadelní činnost",12191000
NA,NA,NA,NA,"Hudební činnost",22733000
NA,NA,NA,NA,"Ostatní záležitosti kultury",30209020.51
NA,NA,NA,NA,"Ostatní záležitosti kultury, církví a sdělovacích prostředků",156000
NA,NA,NA,NA,"Pořízení, zachování a obnova hodnot místního kulturního, národního a historického povědomí",4414862
NA,NA,NA,NA,"Zachování a obnova kulturních památek",15887969.44
NA,NA,NA,NA,"Činnosti knihovnické",55606000
NA,NA,NA,NA,"Činnosti muzeí a galerií",126592466.98
NA,NA,NA,NA,"Činnosti registrovaných církví a náboženských společností",329860
NA,NA,NA,"Ochrana životního prostředí","Chráněné části přírody",16933381.47
NA,NA,NA,NA,"Ekologická výchova a osvěta",2163120
NA,NA,NA,NA,"Ochrana druhů a stanovišť",34260168.1
NA,NA,NA,NA,"Ostatní správa v ochraně životního prostředí",16416082
NA,NA,NA,NA,"Prevence vzniku odpadů",1484025.33
NA,NA,NA,NA,"Protierozní, protilavinová a protipožární ochrana",5405603.46
NA,NA,NA,NA,"Využívání a zneškodňování komunálních odpadů",50000
NA,NA,NA,"Ostatní výzkum a vývoj","Ostatní výzkum a vývoj odvětvově nespecifikovaný",100000
NA,NA,NA,"Tělovýchova a zájmová činnost","Ostatní tělovýchovná činnost",13620805.15
NA,NA,NA,NA,"Ostatní zájmová činnost a rekreace",606264
NA,NA,NA,NA,"Sportovní zařízení v majetku obcí",4391390
NA,NA,NA,NA,"Využití volného času dětí a mládeže",70167992.78
NA,NA,NA,"Vzdělávání a školské služby","Domovy mládeže",43390592
NA,NA,NA,NA,"Gymnazia",455700610.17
NA,NA,NA,NA,"Konzervatoře",25690203
NA,NA,NA,NA,"Mateřské školy",585823268.55
NA,NA,NA,NA,"Mateřské školy pro děti se speciálními vzdělávacími potřebami",20916556.8
NA,NA,NA,NA,"Ostatní zařízení související s výchovou a vzděláváním mládeže",2866210.62
NA,NA,NA,NA,"Ostatní záležitosti vzdělávání",187577107.66
NA,NA,NA,NA,"Ostatní záležitosti základního vzdělávání",2166000
NA,NA,NA,NA,"Ostatní školní stravování",3209533
NA,NA,NA,NA,"První stupeň základních škol",272902308
NA,NA,NA,NA,"Střediska praktického vyučování a školní hospodářství",16049952
NA,NA,NA,NA,"Střední odborné školy",941765733.71
NA,NA,NA,NA,"Střední školy a konzervatoře pro žáky se speciálními vzdělávacími potřebami",1294321
NA,NA,NA,NA,"Střední školy poskytující střední vzdělání s výučním listem",812660275.63
NA,NA,NA,NA,"Vyšší odborné školy",117084207.36
NA,NA,NA,NA,"Výzkum, vývoj a inovace na vysokých školách",60000
NA,NA,NA,NA,"Zařízení výchovného poradenství",32028268
NA,NA,NA,NA,"Základní umělecké školy",237461988.47
NA,NA,NA,NA,"Základní školy",2220263522
NA,NA,NA,NA,"Základní školy pro žáky se speciálními vzdělávacími potřebami",210239975
NA,NA,NA,NA,"Školní družiny a kluby",3567383
NA,NA,NA,NA,"Školní stravování",13739599
NA,NA,NA,"Zdravotnictví","Další vzdělávání pracovníků ve zdravotnictví",500000
NA,NA,NA,NA,"Lékařská služba první pomoci",5999000
NA,NA,NA,NA,"Ostatní nemocnice",222111845.28
NA,NA,NA,NA,"Ostatní speciální zdravotnická péče",4365612
NA,NA,NA,NA,"Ostatní zdravotnická zařízení a služby pro zdravotnictví",610699
NA,NA,NA,NA,"Ostatní činnost ve zdravotnictví",4743200.67
NA,NA,NA,NA,"Prevence před drogami, alkoholem, nikotinem aj. závislostmi",7100000
NA,NA,NA,NA,"Zdravotnická záchranná služba",288743445.6
NA,NA,"Sociální věci a politika zaměstnanosti","Sociální služby a společné činnosti v sociálním zabezpečení a politice zaměstnanosti","Centra sociálně rehabilitačních služeb",28681718.52
NA,NA,NA,NA,"Domovy pro osoby se zdravotním postižením a domovy se zvláštním režimem",17254451.52
NA,NA,NA,NA,"Domovy pro seniory",186545278.44
NA,NA,NA,NA,"Ostatní sociální péče a pomoc dětem a mládeži",879978.53
NA,NA,NA,NA,"Ostatní sociální péče a pomoc ostatním skupinám obyvatelstva",822000
NA,NA,NA,NA,"Ostatní sociální péče a pomoc rodině a manželství",3154727
NA,NA,NA,NA,"Ostatní záležitosti sociálních věcí a politiky zaměstnanosti",55096222.89
NA,NA,NA,NA,"Sociální poradenství pro staré občany",8299284
NA,NA,NA,NA,"Sociální péče a pomoc přistěhovalcům a vybraným etnikům",320000
NA,NA,NA,NA,"Týdenní stacionáře",1400000
NA,NA,NA,NA,"Zařízení pro děti vyžadující okamžitou pomoc",19239440
NA,NA,NA,NA,"Ústavy péče pro mládež",90866595
NA,NA,"Všeobecná veřejná správa a služby","Finanční operace","Obecné příjmy a výdaje z finančních operací",5733467.33
NA,NA,NA,NA,"Ostatní finanční operace",3627746.45
NA,NA,NA,NA,"Pojištění funkčně nespecifikované",34884648.98
NA,NA,NA,"Jiné veřejné služby a činnosti","Mezinárodní spolupráce (jinde nezařazená)",2518133.32
NA,NA,NA,"Ostatní činnosti","Finanční vypořádání minulých let",14173006.43
NA,NA,NA,NA,"Ostatní činnosti jinde nezařazené",1515558.19
NA,NA,NA,"Státní moc, státní správa, územní samospráva a politické strany","Volby do Evropského parlamentu",79911.1
NA,NA,NA,NA,"Volby do zastupitelstev územních samosprávných celků",116830.1
NA,NA,NA,NA,"Zastupitelstva krajů",25535055.56
NA,NA,NA,NA,"Činnost regionální správy",314326547.46
NA,NA,"Zemědělství, lesní hospodářství a rybářství","Zemědělství, lesní hospodářství a rybářství","Celospolečenské funkce lesů",952446
NA,NA,NA,NA,"Ostatní výdaje na lesní hospodářství",199333.4
NA,NA,NA,NA,"Ostatní zemědělská a potravinářská činnost a rozvoj",1487715
NA,NA,NA,NA,"Ostatní záležitosti regulace zemědělské produkce, organizace zemědělského trhu a poskytování podpor",346001
NA,NA,NA,NA,"Ozdravování hospodářských zvířat, polních a speciálních plodin a zvláštní veterinární péče",20000
NA,NA,NA,NA,"Pěstební činnost",16238275
NA,NA,NA,NA,"Rybářství",820550
