{
"Bezpečnost státu a právní ochrana": {
	"Bezpečnost a veřejný pořádek": {
		"Bezpečnost a veřejný pořádek": 3400000,
		"Ostatní záležitosti bezpečnosti,veřejného pořádku": 1570000
	},
	"Civilní připravenost na krizové stavy": {
		"Ostatní správa v oblasti krizového řízení": 61300.04
	},
	"Požární ochrana a integrovaný záchranný systém": {
		"Ostatní záležitosti požární ochrany": 2735000,
		"Ostatní záležitosti požární ochrany a integrovaného záchranného systému": 4729528,
		"Požární ochrana - dobrovolná část": 27459000,
		"Požární ochrana - profesionální část": 13200000
		}
	},
"Průmyslová a ostatní odvětví hospodářství": {
	"Doprava": {
		"Bezpečnost silničního provozu": 964000,
		"Letiště": 43407,
		"Ostatní záležitosti pozemních komunikací": 24688099.76,
		"Ostatní záležitosti v dopravě": 280285726.54,
		"Provoz civilní letecké dopravy": 10000,
		"Provoz veřejné silniční dopravy": 2017092,
		"Provoz veřejné železniční dopravy": 331050372.33,
		"Silnice": 1190378472.95,
		"Vodní cesty": 1200000
	},
	"Průmysl, stavebnictví, obchod a služby": {
		"Cestovní ruch": 37274327.78,
		"Ostatní odvětvová a oborová opatření": 5914,
		"Ostatní záležitosti zahraničního obchodu": 717033.02,
		"Podpora podnikání a inovací": 21434131.52,
		"Vnitřní obchod": 50000
	},
	"Vodní hospodářství": {
		"Odvádění a čištění odpadních vod a nakládání s kaly": 2469900,
		"Pitná voda": 14084294
		}
	},
"Služby pro obyvatelstvo": {
	"Bydlení, komunální služby a územní rozvoj": {
		"Komunální služby a územní rozvoj jinde nezařazené": 1050688.44,
		"Nebytové hospodářství": 616953.04,
		"Ostatní záležitosti bydlení, komunálních služeb a územního rozvoje": 15143719.36,
		"Veřejné osvětlení": 250000,
		"Výzkum a vývoj v oblasti bydlení, komunálních služeb a územního rozvoje": 76230,
		"Územní plánování": 3992802.08,
		"Územní rozvoj": 4637205.5
	},
	"Kultura, církve a sdělovací prostředky": {
		"Divadelní činnost": 4021000,
		"Filmová tvorba, distribuce, kina a shromažďování audiovizuálních archiválií": 52000,
		"Hudební činnost": 16120000,
		"Mezinárodní spolupráce v kultuře, církvích a sdělovacích prostředcích": 528000,
		"Ostatní záležitosti kultury": 5287003.05,
		"Ostatní záležitosti kultury, církví a sdělovacích prostředků": 3461209,
		"Ostatní záležitosti sdělovacích prostředků": 1374927.1,
		"Pořízení, zachování a obnova hodnot místního kulturního, národního a historického povědomí": 3177000,
		"Rozhlas a televize": 2867182,
		"Vydavatelská činnost": 905000,
		"Výstavní činnosti v kultuře": 494000,
		"Zachování a obnova kulturních památek": 6438885,
		"Zájmová činnost v kultuře": 2250000,
		"Činnosti knihovnické": 10090000,
		"Činnosti muzeí a galerií": 103394864.42,
		"Činnosti památkových ústavů, hradů a zámků": 4400000
	},
	"Ochrana životního prostředí": {
		"Chráněné části přírody": 102723,
		"Ekologická výchova a osvěta": 61471,
		"Monitoring nakládání s odpady": 42000,
		"Ostatní ochrana půdy a spodní vody": 50000,
		"Ostatní správa v ochraně životního prostředí": 130000,
		"Ostatní činnosti k ochraně přírody a krajiny": 947039.24,
		"Sběr a svoz komunálních odpadů": 100000,
		"Využívání a zneškodňování nebezpečných odpadů": 667675.83,
		"Změny technologií vytápění": 716618.81
	},
	"Ostatní činnosti související se službami pro obyvatelstvo": {
		"Ostatní činnosti související se službami pro obyvatelstvo": 976000
	},
	"Tělovýchova a zájmová činnost": {
		"Ostatní tělovýchovná činnost": 60042009,
		"Ostatní zájmová činnost a rekreace": 3385000,
		"Sportovní zařízení v majetku obcí": 1700000,
		"Využití volného času dětí a mládeže": 6485021.6
	},
	"Vzdělávání a školské služby": {
		"Domovy mládeže": 94360000,
		"Dětské domovy": 75174000,
		"Gymnazia": 497737545,
		"Internáty": 17997000,
		"Jazykové školy s právem státní jazykové zkoušky": 36000,
		"Konzervatoře": 53468617,
		"Mateřské školy": 1033653884,
		"Mateřské školy pro děti se speciálními vzdělávacími potřebami": 37245600,
		"Mezinárodní spolupráce ve vzdělávání": 190000,
		"Ostatní zařízení související s výchovou a vzděláváním mládeže": 13267388,
		"Ostatní záležitosti vzdělávání": 16427588.15,
		"Ostatní školská zařízení pro výkon ústavní a ochranné výchovy": 3101000,
		"První stupeň základních škol": 289848843,
		"Sportovní školy - gymnázia": 10787995,
		"Střediska praktického vyučování a školní hospodářství": 3071000,
		"Střediska volného času": 108221141.82,
		"Střediska výchovné péče": 4089000,
		"Střední odborné školy": 666395077.59,
		"Střední školy a konzervatoře pro žáky se speciálními vzdělávacími potřebami": 104799816,
		"Střední školy poskytující střední vzdělání s výučním listem": 567483727.42,
		"Vyšší odborné školy": 70871000,
		"Vzdělávání národnostních menšin a multikulturní výchova": 1408955,
		"Zařízení pro další vzdělávání pedagogických pracovníků": 2132000,
		"Zařízení výchovného poradenství": 58479737,
		"Základní umělecké školy": 315239000,
		"Základní školy": 2046693219,
		"Základní školy pro žáky se speciálními vzdělávacími potřebami": 188293422,
		"Školní družiny a kluby": 271322000,
		"Školní stravování": 461271000
	},
	"Zdravotnictví": {
		"Lázeňské léčebny, ozdravovny, sanatoria": 14058000,
		"Lékařská služba první pomoci": 13327000,
		"Léčebny dlouhodobě nemocných": 1357000,
		"Odborné léčebné ústavy": 2940415,
		"Ostatní ambulantní péče": 5003000,
		"Ostatní nemocnice": 95540610.24,
		"Ostatní speciální zdravotnická péče": 1102976.38,
		"Ostatní ústavní péče": 27762500,
		"Ostatní činnost ve zdravotnictví": 4933869.72,
		"Pomoc zdravotně postiženým a chronicky nemocným": 300000,
		"Prevence před drogami, alkoholem, nikotinem aj. závislostmi": 9500000,
		"Programy paliativní péče": 10000000,
		"Zdravotnická záchranná služba": 215545612.77
		}
	},
"Sociální věci a politika zaměstnanosti": {
	"Sociální služby a společné činnosti v sociálním zabezpečení a politice zaměstnanosti": {
		"Azylové domy, nízkoprahová denní centra a noclehárny": 38502640,
		"Chráněné bydlení": 29374138,
		"Denní stacionáře a centra denních služeb": 34830280,
		"Domovy pro osoby se zdravotním postižením a domovy se zvláštním režimem": 458992625,
		"Domovy pro seniory": 225472178.55,
		"Domy na půl cesty": 1139892,
		"Krizová pomoc": 3321303,
		"Nízkoprahová zařízení pro děti a mládež": 17755226,
		"Odborné sociální poradenství": 22156698,
		"Osobní asistence, pečovatelská služba a podpora samostatného bydlení": 104673056,
		"Ostatní služby a činnosti v oblasti sociální prevence": 15558274.87,
		"Ostatní služby a činnosti v oblasti sociální péče": 20708614,
		"Ostatní sociální péče a pomoc dětem a mládeži": 1697560.1,
		"Ostatní sociální péče a pomoc ostatním skupinám obyvatelstva": 3320330,
		"Ostatní sociální péče a pomoc rodině a manželství": 2375082,
		"Ostatní záležitosti sociálních věcí a politiky zaměstnanosti": 6142642.25,
		"Průvodcovské a předčitatelské služby": 521129,
		"Raná péče a sociálně aktivizační služby pro rodiny s dětmi": 20193509,
		"Služby následné péče, terapeutické komunity a kontaktní centra": 6642535,
		"Sociální poradenství pro staré občany": 21489790,
		"Sociální péče a pomoc přistěhovalcům a vybraným etnikům": 2689148.7,
		"Sociální služby poskytované ve zdravotnických zařízeních ústavní péče": 5334679,
		"Sociálně terapeutické dílny": 10776763,
		"Terénní programy": 10206495,
		"Týdenní stacionáře": 10966299,
		"Zařízení pro děti vyžadující okamžitou pomoc": 8344040
		}
	},
"Všeobecná veřejná správa a služby": {
	"Finanční operace": {
		"Obecné příjmy a výdaje z finančních operací": 11136712.95,
		"Ostatní finanční operace": 25617928.43,
		"Pojištění funkčně nespecifikované": 12491197.01
	},
	"Jiné veřejné služby a činnosti": {
		"Mezinárodní spolupráce (jinde nezařazená)": 13048011.93
	},
	"Ostatní činnosti": {
		"Finanční vypořádání minulých let": 85381098.79,
		"Ostatní činnosti jinde nezařazené": 17580701.51,
		"Zastupitelstva krajů": 23022372.62,
		"Činnost místní správy": 5775000,
		"Činnost regionální správy": 208399130.58
		}
	},
"Zemědělství, lesní hospodářství a rybářství": {
	"Zemědělství, lesní hospodářství a rybářství": {
		"Ostatní zemědělská a potravinářská činnost a rozvoj": 11965310,
		"Ostatní záležitosti lesního hospodářství": 1960293
		}
	}
}
