{
"Bezpečnost státu a právní ochrana": {
	"Bezpečnost a veřejný pořádek": {
		"Bezpečnost a veřejný pořádek": 5050000,
		"Ostatní záležitosti bezpečnosti,veřejného pořádku": 113760
	},
	"Civilní připravenost na krizové stavy": {
		"Ochrana obyvatelstva": 2161200,
		"Ostatní správa v oblasti krizového řízení": 3173334,
		"Záležitosti krizového řízení jinde nezařazené": 10642102,
		"Činnost orgánů krizového řízení na územní úrovni a dalších územních správních úřadů v oblasti krizového řízení": 35119626.33
	},
	"Obrana": {
		"Činnost ostatních orgánů státní správy ve vojenské obraně": 71412,
		"Operační a informační střediska integrovaného záchranného systému.": 8977790.2,
		"Ostatní záležitosti požární ochrany a integrovaného záchranného systému": 447157.2,
		"Požární ochrana - dobrovolná část": 20945060,
		"Požární ochrana - profesionální část": 15759543.6
		}
	},
"Průmyslová a ostatní odvětví hospodářství": {
	"Doprava": {
		"Bezpečnost silničního provozu": 1000000,
		"Letiště": 180799256.1,
		"Ostatní záležitosti pozemních komunikací": 12885046.11,
		"Ostatní záležitosti v dopravě": 14312834.68,
		"Provoz veřejné silniční dopravy": 542516566,
		"Provoz veřejné železniční dopravy": 845369000,
		"Silnice": 1604878503.68,
		"Železniční dráhy": 1000000
	},
	"Průmysl, stavebnictví, obchod a služby": {
		"Cestovní ruch": 52140603.4,
		"Mezinárodní spolupráce v průmyslu, stavebnictví, obchodu a službách": 903689.9,
		"Vnitřní obchod": 9216785.65,
		"Záležitosti průmyslu, stavebnictví, obchodu a služeb jinde nezařazené": 150000,
		"Úspora energie a obnovitelné zdroje": 4500000,
		"Ostatní správa ve vodním hospodářství": 450000,
		"Ostatní záležitosti vodního hospodářství": 38592644.75
		}
	},
"Služby pro obyvatelstvo": {
	"Bydlení, komunální služby a územní rozvoj": {
		"Komunální služby a územní rozvoj jinde nezařazené": 43054447.17,
		"Územní plánování": 4146000,
		"Územní rozvoj": 128003042.77
	},
	"Kultura, církve a sdělovací prostředky": {
		"Divadelní činnost": 51232408.73,
		"Filmová tvorba, distribuce, kina a shromažďování audiovizuálních archiválií": 100000,
		"Hudební činnost": 6928000,
		"Mezinárodní spolupráce v kultuře, církvích a sdělovacích prostředcích": 32733,
		"Ostatní záležitosti kultury": 6987095,
		"Ostatní záležitosti kultury, církví a sdělovacích prostředků": 1705000,
		"Ostatní záležitosti ochrany památek a péče o kulturní dědictví": 64959,
		"Ostatní záležitosti sdělovacích prostředků": 7043579,
		"Pořízení, zachování a obnova hodnot místního kulturního, národního a historického povědomí": 414882,
		"Rozhlas a televize": 1751040,
		"Vydavatelská činnost": 115000,
		"Výstavní činnosti v kultuře": 68705.19,
		"Zachování a obnova kulturních památek": 7921890.89,
		"Činnosti knihovnické": 48475000,
		"Činnosti muzeí a galerií": 114289476
	},
	"Ochrana životního prostředí": {
		"Chráněné části přírody": 2625594.54,
		"Ekologická výchova a osvěta": 4791115.11,
		"Monitoring ochrany ovzduší": 2800000,
		"Ochrana druhů a stanovišť": 3284917,
		"Ostatní ekologické záležitosti": 11348955.8,
		"Ostatní nakládání s odpady": 1300000,
		"Ostatní správa v ochraně životního prostředí": 1217997.5,
		"Ostatní činnosti k ochraně ovzduší": 6970000,
		"Ostatní činnosti k ochraně přírody a krajiny": 4072550.59,
		"Protierozní, protilavinová a protipožární ochrana": 500000,
		"Využívání a zneškodňování nebezpečných odpadů": 420454.38
	},
	"Tělovýchova a zájmová činnost": {
		"Ostatní tělovýchovná činnost": 27415592.8,
		"Ostatní zájmová činnost a rekreace": 209937,
		"Využití volného času dětí a mládeže": 117927341
	},
	"Vzdělávání a školské služby": {
		"Domovy mládeže": 89708137.48,
		"Gymnazia": 768393596.16,
		"Internáty": 7471000,
		"Konzervatoře": 65364558.6,
		"Mateřské školy": 1436677684,
		"Mateřské školy pro děti se speciálními vzdělávacími potřebami": 58099533,
		"Ostatní zařízení související s výchovou a vzděláváním mládeže": 4979000,
		"Ostatní záležitosti vzdělávání": 427324490.09,
		"Ostatní záležitosti základního vzdělávání": 632568.29,
		"Ostatní školní stravování": 128146811.74,
		"První stupeň základních škol": 314791093,
		"Střediska praktického vyučování a školní hospodářství": 26295847.98,
		"Střední odborné školy": 1298907376,
		"Střední školy a konzervatoře pro žáky se speciálními vzdělávacími potřebami": 157778767.32,
		"Střední školy poskytující střední vzdělání s výučním listem": 1218901075.34,
		"Vyšší odborné školy": 87378477.2,
		"Zařízení výchovného poradenství": 84479218.23,
		"Základní umělecké školy": 445671386,
		"Základní školy": 2955997465,
		"Základní školy pro žáky se speciálními vzdělávacími potřebami": 414771894.48,
		"Školní družiny a kluby": 354333649,
		"Školní stravování": 505368701
	},
	"Zdravotnictví": {
		"Odborné léčebné ústavy": 17415240.29,
		"Ostatní nemocnice": 308994419.37,
		"Ostatní speciální zdravotnická péče": 1500000,
		"Ostatní ústavní péče": 45080826,
		"Ostatní činnost ve zdravotnictví": 12560742.05,
		"Prevence před drogami, alkoholem, nikotinem aj. závislostmi": 4072400,
		"Zdravotnická záchranná služba": 402604575.58
		}
	},
"Sociální věci a politika zaměstnanosti": {
	"Sociální služby a společné činnosti v sociálním zabezpečení a politice zaměstnanosti": {
		"Chráněné bydlení": 19833169.74,
		"Domovy pro osoby se zdravotním postižením a domovy se zvláštním režimem": 179742234.67,
		"Ostatní služby a činnosti v oblasti sociální prevence": 91311724.7,
		"Ostatní služby a činnosti v oblasti sociální péče": 500000,
		"Ostatní sociální péče a pomoc ostatním skupinám obyvatelstva": 765801,
		"Ostatní sociální péče a pomoc rodině a manželství": 2685,
		"Ostatní výdaje související se sociálním poradenstvím": 5150000,
		"Ostatní záležitosti sociálních věcí a politiky zaměstnanosti": 14363200,
		"Sociální péče a pomoc přistěhovalcům a vybraným etnikům": 597057.2,
		"Zařízení pro děti vyžadující okamžitou pomoc": 15564131,
		"Zařízení pro výkon pěstounské péče": 11000000,
		"Základní sociální poradenství": 8175847.53,
		"Ústavy péče pro mládež": 242885277.12
		}
	},
"Všeobecná veřejná správa a služby": {
	"Finanční operace": {
		"Obecné příjmy a výdaje z finančních operací": 26147540.31,
		"Ostatní finanční operace": 18361452.23,
		"Pojištění funkčně nespecifikované": 31499944.5
	},
	"Jiné veřejné služby a činnosti": {
		"Mezinárodní spolupráce (jinde nezařazená)": 725082
	},
	"Ostatní činnosti": {
		"Finanční vypořádání minulých let": 29958112.3,
		"Ostatní činnosti jinde nezařazené": 53387.7
	},
	"Státní moc, státní správa, územní samospráva a politické strany": {
		"Volby do zastupitelstev územních samosprávných celků": 96024.64,
		"Zastupitelstva krajů": 31494520.71,
		"Činnost regionální správy": 392121340.57,
		"Činnost regionálních rad": 9500000
		}
	},
"Zemědělství, lesní hospodářství a rybářství": {
	"Zemědělství, lesní hospodářství a rybářství": {
		"Celospolečenské funkce lesů": 10899642.02,
		"Ostatní zemědělská a potravinářská činnost a rozvoj": 1309700,
		"Ostatní záležitosti lesního hospodářství": 17434277,
		"Rybářství": 50000
		}
	}
}
