"Organizace..název.","Rok..kód.","Skupina.paragrafů..název.","Oddíl.paragrafů..název.","Paragraf..název.","Výsledek.od.počátku.roku"
"Pardubický kraj",2010,"Bezpečnost státu a právní ochrana","Bezpečnost a veřejný pořádek","Bezpečnost a veřejný pořádek",400000
NA,NA,NA,"Civilní připravenost na krizové stavy","Ostatní správa v oblasti hospodářských opatření pro krizové stavy",1150000
NA,NA,NA,NA,"Ostatní správa v oblasti krizového řízení",217120
NA,NA,NA,NA,"Podpora krizového řízení a nouzového plánování",4121790
NA,NA,NA,"Požární ochrana a integrovaný záchranný systém","Ostatní složky a činnosti integrovaného záchranného systému",850000
NA,NA,NA,NA,"Ostatní záležitosti požární ochrany",25000
NA,NA,NA,NA,"Požární ochrana - dobrovolná část",11980740
NA,NA,"Průmyslová a ostatní odvětví hospodářství","Doprava","Letiště",8160000
NA,NA,NA,NA,"Ostatní záležitosti pozemních komunikací",3553290
NA,NA,NA,NA,"Ostatní záležitosti v silniční dopravě",431400
NA,NA,NA,NA,"Provoz ostatních drah",5295580
NA,NA,NA,NA,"Provoz veřejné silniční dopravy",256220400
NA,NA,NA,NA,"Provoz veřejné železniční dopravy",441397610
NA,NA,NA,NA,"Silnice",1080666380
NA,NA,NA,"Průmysl, stavebnictví, obchod a služby","Cestovní ruch",12820320
NA,NA,NA,NA,"Vnitřní obchod",928000
NA,NA,NA,NA,"Úspora energie a obnovitelné zdroje",22038530
NA,NA,NA,"Vodní hospodářství","Odvádění a čištění odpadních vod a nakládání s kaly",48565040
NA,NA,NA,NA,"Pitná voda",15454000
NA,NA,NA,NA,"Vodní díla v zemědělské krajině",120000
NA,NA,NA,NA,"Úpravy drobných vodních toků",2465000
NA,NA,NA,"Všeobecné hospodářské záležitosti a ostatní ekonomické funkce","Všeobecná hospodářská správa jinde nezařazená",1896730
NA,NA,"Služby pro obyvatelstvo","Bydlení, komunální služby a územní rozvoj","Bytové hospodářství",920000
NA,NA,NA,NA,"Komunální služby a územní rozvoj jinde nezařazené",20748010
NA,NA,NA,NA,"Nebytové hospodářství",100000
NA,NA,NA,NA,"Pohřebnictví",813000
NA,NA,NA,NA,"Veřejné osvětlení",1814000
NA,NA,NA,NA,"Výstavba a údržba místních inženýrských sítí",269000
NA,NA,NA,NA,"Územní plánování",4540620
NA,NA,NA,"Kultura, církve a sdělovací prostředky","Divadelní činnost",4398000
NA,NA,NA,NA,"Filmová tvorba, distribuce, kina a shromažďování audiovizuálních archiválií",200000
NA,NA,NA,NA,"Hudební činnost",5939980
NA,NA,NA,NA,"Mezinárodní spolupráce v kultuře, církvích a sdělovacích prostředcích",20000
NA,NA,NA,NA,"Ostatní záležitosti kultury",1439500
NA,NA,NA,NA,"Ostatní záležitosti kultury, církví a sdělovacích prostředků",1300610
NA,NA,NA,NA,"Ostatní záležitosti ochrany památek a péče o kulturní dědictví",84500
NA,NA,NA,NA,"Pořízení, zachování a obnova hodnot místního kulturního, národního a historického povědomí",2440640
NA,NA,NA,NA,"Rozhlas a televize",1100000
NA,NA,NA,NA,"Vydavatelská činnost",425000
NA,NA,NA,NA,"Výstavní činnosti v kultuře",175000
NA,NA,NA,NA,"Zachování a obnova kulturních památek",13348180
NA,NA,NA,NA,"Zájmová činnost v kultuře",1260320
NA,NA,NA,NA,"Činnosti knihovnické",27548000
NA,NA,NA,NA,"Činnosti muzeí a galerií",87483400
NA,NA,NA,"Ochrana životního prostředí","Chráněné části přírody",1995090
NA,NA,NA,NA,"Dekontaminace půd a čištění spodní vody",66482280
NA,NA,NA,NA,"Ekologická výchova a osvěta",4189000
NA,NA,NA,NA,"Monitoring nakládání s odpady",257400
NA,NA,NA,NA,"Monitoring ochrany ovzduší",107200
NA,NA,NA,NA,"Monitoring půdy a podzemní vody",5372610
NA,NA,NA,NA,"Ochrana druhů a stanovišť",1871770
NA,NA,NA,NA,"Ostatní správa v ochraně životního prostředí",371620
NA,NA,NA,NA,"Ostatní činnosti k ochraně přírody a krajiny",956390
NA,NA,NA,NA,"Protierozní, protilavinová a protipožární ochrana",25000
NA,NA,NA,NA,"Péče o vzhled obcí a veřejnou zeleň",7996420
NA,NA,NA,NA,"Sběr a svoz komunálních odpadů",1200000
NA,NA,NA,NA,"Sběr a svoz nebezpečných odpadů",257290
NA,NA,NA,NA,"Využívání a zneškodňování komunálních odpadů",750000
NA,NA,NA,"Tělovýchova a zájmová činnost","Ostatní tělovýchovná činnost",9114600
NA,NA,NA,NA,"Ostatní zájmová činnost a rekreace",6346850
NA,NA,NA,NA,"Sportovní zařízení v majetku obcí",3478000
NA,NA,NA,NA,"Využití volného času dětí a mládeže",41412360
NA,NA,NA,"Vzdělávání a školské služby","Domovy mládeže",25083580
NA,NA,NA,NA,"Gymnazia",313322320
NA,NA,NA,NA,"Konzervatoře",26451290
NA,NA,NA,NA,"Mateřské školy",544890780
NA,NA,NA,NA,"Mezinárodní spolupráce ve vzdělávání",433970
NA,NA,NA,NA,"Ostatní zařízení související s výchovou a vzděláváním mládeže",346000
NA,NA,NA,NA,"Ostatní záležitosti vzdělávání",113398700
NA,NA,NA,NA,"Ostatní školní stravování",1277000
NA,NA,NA,NA,"První stupeň základních škol",255608870
NA,NA,NA,NA,"Sportovní školy - gymnázia",16838440
NA,NA,NA,NA,"Střediska praktického vyučování a školní hospodářství",3496850
NA,NA,NA,NA,"Střední odborné školy",544313770
NA,NA,NA,NA,"Střední školy a konzervatoře pro žáky se speciálními vzdělávacími potřebami",69357420
NA,NA,NA,NA,"Střední školy poskytující střední vzdělání s výučním listem",677093480
NA,NA,NA,NA,"Zařízení výchovného poradenství",23349930
NA,NA,NA,NA,"Základní umělecké školy",198594140
NA,NA,NA,NA,"Základní školy",1366963050
NA,NA,NA,NA,"Základní školy pro žáky se speciálními vzdělávacími potřebami",249116350
NA,NA,NA,NA,"Školní stravování",32554560
NA,NA,NA,"Zdravotnictví","Odborné léčebné ústavy",21255920
NA,NA,NA,NA,"Ostatní nemocnice",96067750
NA,NA,NA,NA,"Ostatní speciální zdravotnická péče",1626540
NA,NA,NA,NA,"Ostatní ústavní péče",46190000
NA,NA,NA,NA,"Ostatní činnost ve zdravotnictví",20982010
NA,NA,NA,NA,"Pomoc zdravotně postiženým a chronicky nemocným",20000
NA,NA,NA,NA,"Prevence před drogami, alkoholem, nikotinem aj. závislostmi",1360000
NA,NA,NA,NA,"Zdravotnická záchranná služba",149572400
NA,NA,"Sociální věci a politika zaměstnanosti","Politika zaměstnanosti","Veřejně prospěšné práce",80000
NA,NA,NA,"Sociální služby a společné činnosti v sociálním zabezpečení a politice zaměstnanosti","Azylové domy, nízkoprahová denní centra a noclehárny",200000
NA,NA,NA,NA,"Chráněné bydlení",861380
NA,NA,NA,NA,"Denní stacionáře a centra denních služeb",3215000
NA,NA,NA,NA,"Domovy pro osoby se zdravotním postižením a domovy se zvláštním režimem",91632540
NA,NA,NA,NA,"Domovy-penzióny pro matky s dětmi",3913110
NA,NA,NA,NA,"Krizová pomoc",770000
NA,NA,NA,NA,"Mezinárodní spolupráce v sociálním zabezpečení a podpoře zaměstnanosti",70000
NA,NA,NA,NA,"Nízkoprahová zařízení pro děti a mládež",1229000
NA,NA,NA,NA,"Osobní asistence, pečovatelská služba a podpora samostatného bydlení",11223000
NA,NA,NA,NA,"Ostatní služby a činnosti v oblasti sociální prevence",3491200
NA,NA,NA,NA,"Ostatní služby a činnosti v oblasti sociální péče",8507000
NA,NA,NA,NA,"Ostatní sociální péče a pomoc ostatním skupinám obyvatelstva",71392740
NA,NA,NA,NA,"Ostatní sociální péče a pomoc rodině a manželství",3135430
NA,NA,NA,NA,"Ostatní výdaje související se sociálním poradenstvím",1477250
NA,NA,NA,NA,"Průvodcovské a předčitatelské služby",20000
NA,NA,NA,NA,"Raná péče a sociálně aktivizační služby pro rodiny s dětmi",1110000
NA,NA,NA,NA,"Služby následné péče, terapeutické komunity a kontaktní centra",400000
NA,NA,NA,NA,"Sociální poradenství pro staré občany",200000
NA,NA,NA,NA,"Sociální péče a pomoc přistěhovalcům a vybraným etnikům",1337380
NA,NA,NA,NA,"Terénní programy",80000
NA,NA,NA,NA,"Týdenní stacionáře",1015000
NA,NA,NA,NA,"Zařízení pro děti vyžadující okamžitou pomoc",4921880
NA,NA,NA,NA,"Základní sociální poradenství",1449000
NA,NA,NA,NA,"Ústavy péče pro mládež",52230760
NA,NA,"Všeobecná veřejná správa a služby","Finanční operace","Obecné příjmy a výdaje z finančních operací",19380
NA,NA,NA,NA,"Ostatní finanční operace",21117840
NA,NA,NA,NA,"Pojištění funkčně nespecifikované",15358410
NA,NA,NA,"Jiné veřejné služby a činnosti","Humanitární zahraniční pomoc přímá",500000
NA,NA,NA,NA,"Ostatní zahraniční pomoc",300000
NA,NA,NA,"Ostatní činnosti","Finanční vypořádání minulých let",36485690
NA,NA,NA,NA,"Ostatní činnosti jinde nezařazené",2715100
NA,NA,NA,NA,"Volby do Parlamentu ČR",69920
NA,NA,NA,NA,"Volby do zastupitelstev územních samosprávných celků",66420
NA,NA,NA,NA,"Zastupitelstva krajů",16496430
NA,NA,NA,NA,"Činnost místní správy",2130000
NA,NA,NA,NA,"Činnost regionální správy",407887470
NA,NA,"Zemědělství, lesní hospodářství a rybářství","Zemědělství, lesní hospodářství a rybářství","Ostatní zemědělská a potravinářská činnost a rozvoj",1157180
NA,NA,NA,NA,"Ostatní záležitosti lesního hospodářství",55260
NA,NA,NA,NA,"Ozdravování hospodářských zvířat, polních a speciálních plodin a zvláštní veterinární péče",100000
NA,NA,NA,NA,"Podpora ostatních produkčních činností",2718560
NA,NA,NA,NA,"Pěstební činnost",13910980
NA,NA,NA,NA,"Udržování výrobního potenciálu zemědělství, zemědělský půdní fond a mimoprodukční funkce zemědělství",26000
