"Organizace..název.","Rok..kód.","Skupina.paragrafů..název.","Oddíl.paragrafů..název.","Paragraf..název.","Výsledek.od.počátku.roku"
NA,"2016 (k 30.6.)","Bezpečnost státu a právní ochrana","Bezpečnost a veřejný pořádek","Bezpečnost a veřejný pořádek",2575000
NA,NA,NA,NA,"Ostatní správa v oblasti hospodářských opatření pro krizové stavy",429
NA,NA,NA,NA,"Ostatní správa v oblasti krizového řízení",55844.75
NA,NA,NA,"Požární ochrana a integrovaný záchranný systém","Požární ochrana - dobrovolná část",3535498
NA,NA,"Průmyslová a ostatní odvětví hospodářství","Doprava","Bezpečnost silničního provozu",2870430.2
NA,NA,NA,NA,"Ostatní záležitosti pozemních komunikací",1413000
NA,NA,NA,NA,"Ostatní záležitosti v dopravě",14290791
NA,NA,NA,NA,"Ostatní záležitosti v silniční dopravě",301500
NA,NA,NA,NA,"Provoz veřejné silniční dopravy",209193387.41
NA,NA,NA,NA,"Provoz veřejné železniční dopravy",278640130.68
NA,NA,NA,NA,"Silnice",337554253.78
NA,NA,NA,"Průmysl, stavebnictví, obchod a služby","Cestovní ruch",2341422.6
NA,NA,NA,NA,"Vnitřní obchod",190000
NA,NA,NA,NA,"Ostatní správa ve vodním hospodářství",6000
NA,NA,NA,NA,"Ostatní záležitosti vodního hospodářství",137783.36
NA,NA,NA,NA,"Pitná voda",450000
NA,NA,NA,NA,"Vodní díla v zemědělské krajině",450000
NA,NA,"Služby pro obyvatelstvo","Bydlení, komunální služby a územní rozvoj","Bytové hospodářství",1420000
NA,NA,NA,NA,"Komunální služby a územní rozvoj jinde nezařazené",12995578.88
NA,NA,NA,NA,"Mezinárodní spolupráce v oblasti bydlení, komunálních služeb a územního rozvoje",1098629.71
NA,NA,NA,NA,"Veřejné osvětlení",300000
NA,NA,NA,NA,"Územní plánování",545000
NA,NA,NA,NA,"Územní rozvoj",240000
NA,NA,NA,"Kultura, církve a sdělovací prostředky","Divadelní činnost",3467800
NA,NA,NA,NA,"Filmová tvorba, distribuce, kina a shromažďování audiovizuálních archiválií",700000
NA,NA,NA,NA,"Hudební činnost",7685000
NA,NA,NA,NA,"Ostatní záležitosti kultury",5071177.45
NA,NA,NA,NA,"Ostatní záležitosti kultury, církví a sdělovacích prostředků",360000
NA,NA,NA,NA,"Ostatní záležitosti ochrany památek a péče o kulturní dědictví",3835
NA,NA,NA,NA,"Pořízení, zachování a obnova hodnot místního kulturního, národního a historického povědomí",950000
NA,NA,NA,NA,"Vydavatelská činnost",55000
NA,NA,NA,NA,"Výstavní činnosti v kultuře",215000
NA,NA,NA,NA,"Zachování a obnova kulturních památek",350000
NA,NA,NA,NA,"Zájmová činnost v kultuře",106000
NA,NA,NA,NA,"Činnosti knihovnické",32397000
NA,NA,NA,NA,"Činnosti muzeí a galerií",90415217.82
NA,NA,NA,"Ochrana životního prostředí","Chráněné části přírody",33975
NA,NA,NA,NA,"Ekologická výchova a osvěta",111129
NA,NA,NA,NA,"Ochrana druhů a stanovišť",1048402.8
NA,NA,NA,NA,"Ostatní nakládání s odpady",500
NA,NA,NA,NA,"Ostatní správa v ochraně životního prostředí",6000
NA,NA,NA,NA,"Ostatní činnosti k ochraně ovzduší",6000
NA,NA,NA,NA,"Ostatní činnosti k ochraně přírody a krajiny",409643
NA,NA,NA,NA,"Prevence vzniku odpadů",95864
NA,NA,NA,NA,"Protiradonová opatření",150000
NA,NA,NA,NA,"Péče o vzhled obcí a veřejnou zeleň",752150
NA,NA,NA,NA,"Využívání a zneškodňování komunálních odpadů",411642
NA,NA,NA,NA,"Využívání a zneškodňování nebezpečných odpadů",276006.17
NA,NA,NA,NA,"Změny technologií vytápění",11959037.95
NA,NA,NA,"Tělovýchova a zájmová činnost","Ostatní tělovýchovná činnost",13739785.25
NA,NA,NA,NA,"Ostatní zájmová činnost a rekreace",5166818
NA,NA,NA,NA,"Sportovní zařízení v majetku obcí",120000
NA,NA,NA,"Vzdělávání a školské služby","Druhý stupeň základních škol",3407000
NA,NA,NA,NA,"Dětské domovy",56014124
NA,NA,NA,NA,"Gymnazia",112824970
NA,NA,NA,NA,"Konzervatoře",14949000
NA,NA,NA,NA,"Mateřské školy",328362252
NA,NA,NA,NA,"Ostatní zařízení související s výchovou a vzděláváním mládeže",10243000
NA,NA,NA,NA,"Ostatní záležitosti vzdělávání",7010169.1
NA,NA,NA,NA,"První stupeň základních škol",132719688
NA,NA,NA,NA,"Sportovní školy - gymnázia",18668080
NA,NA,NA,NA,"Střediska volného času",27030000
NA,NA,NA,NA,"Střední odborné školy",163321573
NA,NA,NA,NA,"Střední školy",446480990.83
NA,NA,NA,NA,"Střední školy poskytující střední vzdělání s výučním listem",25319254
NA,NA,NA,NA,"Vyšší odborné školy",7204603
NA,NA,NA,NA,"Zařízení pro další vzdělávání pedagogických pracovníků",5261000
NA,NA,NA,NA,"Zařízení výchovného poradenství",17898932.95
NA,NA,NA,NA,"Základní umělecké školy",121250088
NA,NA,NA,NA,"Základní školy",1032798944
NA,NA,NA,NA,"Základní školy pro žáky se speciálními vzdělávacími potřebami",99909510
NA,NA,NA,NA,"Školní stravování",4312607
NA,NA,NA,"Zdravotnictví","Další vzdělávání pracovníků ve zdravotnictví",40000
NA,NA,NA,NA,"Lékařská služba první pomoci",9660380
NA,NA,NA,NA,"Odborné léčebné ústavy",2000000
NA,NA,NA,NA,"Ostatní nemocnice",84782517.81
NA,NA,NA,NA,"Ostatní zdravotnická zařízení a služby pro zdravotnictví",2429744.1
NA,NA,NA,NA,"Ostatní ústavní péče",7752000
NA,NA,NA,NA,"Ostatní činnost ve zdravotnictví",9208190.44
NA,NA,NA,NA,"Pomoc zdravotně postiženým a chronicky nemocným",75000
NA,NA,NA,NA,"Prevence před drogami, alkoholem, nikotinem aj. závislostmi",2800000
NA,NA,NA,NA,"Zdravotnická záchranná služba",135578078.08
NA,NA,"Sociální věci a politika zaměstnanosti","Sociální služby a společné činnosti v sociálním zabezpečení a politice zaměstnanosti","Azylové domy, nízkoprahová denní centra a noclehárny",1726499
NA,NA,NA,NA,"Denní stacionáře a centra denních služeb",3102962.5
NA,NA,NA,NA,"Domovy pro osoby se zdravotním postižením a domovy se zvláštním režimem",134130268
NA,NA,NA,NA,"Domovy pro seniory",102242414
NA,NA,NA,NA,"Nízkoprahová zařízení pro děti a mládež",30947945.5
NA,NA,NA,NA,"Odborné sociální poradenství",3740381
NA,NA,NA,NA,"Osobní asistence, pečovatelská služba a podpora samostatného bydlení",88575181.5
NA,NA,NA,NA,"Ostatní služby a činnosti v oblasti sociální prevence",5290161.2
NA,NA,NA,NA,"Ostatní služby a činnosti v oblasti sociální péče",6005732
NA,NA,NA,NA,"Ostatní sociální péče a pomoc dětem a mládeži",350000
NA,NA,NA,NA,"Ostatní sociální péče a pomoc ostatním skupinám obyvatelstva",377380
NA,NA,NA,NA,"Ostatní sociální péče a pomoc rodině a manželství",618130.7
NA,NA,NA,NA,"Ostatní výdaje související se sociálním poradenstvím",517229
NA,NA,NA,NA,"Ostatní záležitosti sociálních věcí a politiky zaměstnanosti",5633009.4
NA,NA,NA,NA,"Raná péče a sociálně aktivizační služby pro rodiny s dětmi",11200822.8
NA,NA,NA,NA,"Služby následné péče, terapeutické komunity a kontaktní centra",2280186
NA,NA,NA,NA,"Sociální poradenství pro staré občany",6723358.7
NA,NA,NA,NA,"Sociálně terapeutické dílny",12925214.6
NA,NA,NA,NA,"Terénní programy",7319421.5
NA,NA,NA,NA,"Zařízení pro děti vyžadující okamžitou pomoc",6642400
NA,NA,"Všeobecná veřejná správa a služby","Finanční operace","Obecné příjmy a výdaje z finančních operací",442299.86
NA,NA,NA,NA,"Ostatní finanční operace",25831329.32
NA,NA,NA,NA,"Pojištění funkčně nespecifikované",7148382
NA,NA,NA,NA,"Převody vlastním fondům v rozpočtech územní úrovně",44.85
NA,NA,NA,"Jiné veřejné služby a činnosti","Mezinárodní spolupráce (jinde nezařazená)",1777115.99
NA,NA,NA,NA,"Ostatní veřejné služby jinde nezařazené.",15489723.08
NA,NA,NA,"Ostatní činnosti","Finanční vypořádání minulých let",38446346.39
NA,NA,NA,NA,"Ostatní činnosti jinde nezařazené",804842
NA,NA,NA,NA,"Zastupitelstva krajů",22792654.84
NA,NA,NA,NA,"Činnost regionální správy",140416055.6
NA,NA,NA,NA,"Činnost regionálních rad",2594272.05
NA,NA,"Zemědělství, lesní hospodářství a rybářství","Zemědělství, lesní hospodářství a rybářství","Ostatní záležitosti lesního hospodářství",59048
NA,NA,NA,NA,"Pěstební činnost",14371200
NA,NA,NA,NA,"Správa v lesním hospodářství",1800
