{"main":
[{"name":"Karlovarský kraj","y":4976.1,"drilldown":"CZ041"},{"name":"Ústecký kraj","y":3026.1,"drilldown":"CZ042"},{"name":"Liberecký kraj","y":2780.6,"drilldown":"CZ051"},{"name":"Olomoucký kraj","y":2683.5,"drilldown":"CZ071"},{"name":"Plzeňský kraj","y":2202.3,"drilldown":"CZ032"},{"name":"Kraj Vysočina","y":2186.9,"drilldown":"CZ063"},{"name":"Zlínský kraj","y":2182.2,"drilldown":"CZ072"},{"name":"Královéhradecký kraj","y":2177.2,"drilldown":"CZ052"},{"name":"Pardubický kraj","y":1942.2,"drilldown":"CZ053"},{"name":"Jihočeský kraj","y":1920.4,"drilldown":"CZ031"},{"name":"Středočeský kraj","y":1662.3,"drilldown":"CZ020"},{"name":"Jihomoravský kraj","y":1464.8,"drilldown":"CZ064"},{"name":"Moravskoslezský kraj","y":1414.2,"drilldown":"CZ080"}]
,"drilldown":[
{"name":"Jihočeský kraj",
"id":"CZ031",
"data": [
["Činnost regionální správy",1784.8],
["Zastupitelstva krajů",135],
["Volby do zastupitelstev územních samosprávných celků",0.3],
["Volba prezidenta republiky",0.1],
["Volby do Evropského parlamentu",0.1],
["Volby do Parlamentu ČR",0.1]]},
{"name":"Jihomoravský kraj",
"id":"CZ064",
"data": [
["Činnost regionální správy",1327.3],
["Zastupitelstva krajů",125.2],
["Činnost místní správy",12],
["Volba prezidenta republiky",0.1],
["Volby do Parlamentu ČR",0.1],
["Volby do zastupitelstev územních samosprávných celků",0.1]]},
{"name":"Karlovarský kraj",
"id":"CZ041",
"data": [
["Činnost regionální správy",4593.2],
["Zastupitelstva krajů",376.2],
["Činnost místní správy",3.5],
["Zastupitelstva obcí",3.2]]},
{"name":"Kraj Vysočina",
"id":"CZ063",
"data": [
["Činnost regionální správy",1954.1],
["Zastupitelstva krajů",232.3],
["Volby do zastupitelstev územních samosprávných celků",0.2],
["Volba prezidenta republiky",0.1],
["Volby do Evropského parlamentu",0.1],
["Volby do Parlamentu ČR",0.1]]},
{"name":"Královéhradecký kraj",
"id":"CZ052",
"data": [
["Činnost regionální správy",1988.2],
["Zastupitelstva krajů",180.8],
["Činnost regionálních rad",7.7],
["Volby do zastupitelstev územních samosprávných celků",0.2],
["Volba prezidenta republiky",0.1],
["Volby do Evropského parlamentu",0.1],
["Volby do Parlamentu ČR",0.1]]},
{"name":"Liberecký kraj",
"id":"CZ051",
"data": [
["Činnost regionální správy",2603.6],
["Zastupitelstva krajů",176.3],
["Volby do zastupitelstev územních samosprávných celků",0.4],
["Volba prezidenta republiky",0.1],
["Volby do Evropského parlamentu",0.1],
["Volby do Parlamentu ČR",0.1]]},
{"name":"Moravskoslezský kraj",
"id":"CZ080",
"data": [
["Činnost regionální správy",1285.3],
["Zastupitelstva krajů",109.1],
["Činnost regionálních rad",19.6],
["Volby do Parlamentu ČR",0.1],
["Volby do zastupitelstev územních samosprávných celků",0.1]]},
{"name":"Olomoucký kraj",
"id":"CZ071",
"data": [
["Činnost regionální správy",2499.3],
["Zastupitelstva krajů",183.9],
["Celní správa",0.1],
["Volby do Parlamentu ČR",0.1],
["Volby do zastupitelstev územních samosprávných celků",0.1]]},
{"name":"Pardubický kraj",
"id":"CZ053",
"data": [
["Činnost regionální správy",1802.7],
["Zastupitelstva krajů",125.5],
["Činnost místní správy",13.6],
["Volba prezidenta republiky",0.1],
["Volby do Evropského parlamentu",0.1],
["Volby do Parlamentu ČR",0.1],
["Volby do zastupitelstev územních samosprávných celků",0.1]]},
{"name":"Plzeňský kraj",
"id":"CZ032",
"data": [
["Činnost regionální správy",1736.5],
["Zastupitelstva krajů",252],
["Činnost regionálních rad",212.3],
["Volby do zastupitelstev územních samosprávných celků",0.7],
["Volby do Parlamentu ČR",0.4],
["Volby do Evropského parlamentu",0.3],
["Volba prezidenta republiky",0.1]]},
{"name":"Středočeský kraj",
"id":"CZ020",
"data": [
["Činnost regionální správy",1462.4],
["Zastupitelstva krajů",178.3],
["Činnost místní správy",20.8],
["Volby do zastupitelstev územních samosprávných celků",0.3],
["Volby do Evropského parlamentu",0.2],
["Volby do Parlamentu ČR",0.2],
["Volba prezidenta republiky",0.1]]},
{"name":"Ústecký kraj",
"id":"CZ042",
"data": [
["Činnost regionální správy",2061.8],
["Činnost regionálních rad",757.9],
["Zastupitelstva krajů",200.6],
["Činnost místní správy",5.2],
["Zastupitelstva obcí",0.2],
["Volba prezidenta republiky",0.1],
["Volby do Evropského parlamentu",0.1],
["Volby do Parlamentu ČR",0.1],
["Volby do zastupitelstev územních samosprávných celků",0.1]]},
{"name":"Zlínský kraj",
"id":"CZ072",
"data": [
["Činnost regionální správy",2056],
["Zastupitelstva krajů",125.4],
["Volba prezidenta republiky",0.2],
["Volby do Evropského parlamentu",0.2],
["Volby do Parlamentu ČR",0.2],
["Volby do zastupitelstev územních samosprávných celků",0.2]]}]}
