"Organizace..název.","Rok..kód.","Skupina.paragrafů..název.","Oddíl.paragrafů..název.","Paragraf..název.","Výsledek.od.počátku.roku"
NA,"2016 (k 30.6.)","Bezpečnost státu a právní ochrana","Civilní připravenost na krizové stavy","Ochrana obyvatelstva",24443.28
NA,NA,NA,NA,"Ostatní správa v oblasti krizového řízení",89772
NA,NA,NA,NA,"Ostatní záležitosti požární ochrany a integrovaného záchranného systému",2000000
NA,NA,NA,NA,"Požární ochrana - dobrovolná část",22975958.05
NA,NA,"Průmyslová a ostatní odvětví hospodářství","Doprava","Bezpečnost silničního provozu",1800000
NA,NA,NA,NA,"Kontrola technické způsobilosti vozidel",43560
NA,NA,NA,NA,"Ostatní záležitosti pozemních komunikací",17868925.42
NA,NA,NA,NA,"Ostatní záležitosti v dopravě",165350
NA,NA,NA,NA,"Ostatní záležitosti v silniční dopravě",171426.75
NA,NA,NA,NA,"Provoz veřejné silniční dopravy",389280359.61
NA,NA,NA,NA,"Provoz veřejné železniční dopravy",821365500
NA,NA,NA,NA,"Silnice",796355981.85
NA,NA,NA,"Průmysl, stavebnictví, obchod a služby","Cestovní ruch",19939242.64
NA,NA,NA,"Vodní hospodářství","Odvádění a čištění odpadních vod a nakládání s kaly",53297728.12
NA,NA,NA,NA,"Ostatní záležitosti vodního hospodářství",1811005.65
NA,NA,NA,NA,"Pitná voda",15528949.1
NA,NA,NA,NA,"Vodní díla v zemědělské krajině",8771285
NA,NA,NA,NA,"Záležitosti vodních toků a vodohospodářských děl jinde nezařazené",3412500
NA,NA,NA,"Všeobecné hospodářské záležitosti a ostatní ekonomické funkce","Podpora podnikání",16028503
NA,NA,"Služby pro obyvatelstvo","Bydlení, komunální služby a územní rozvoj","Bytové hospodářství",520594
NA,NA,NA,NA,"Komunální služby a územní rozvoj jinde nezařazené",10631343.63
NA,NA,NA,NA,"Nebytové hospodářství",2785278.56
NA,NA,NA,NA,"Pohřebnictví",2813443
NA,NA,NA,NA,"Veřejné osvětlení",3789285.98
NA,NA,NA,NA,"Územní rozvoj",1144800
NA,NA,NA,NA,"Ostatní záležitosti kultury",633830
NA,NA,NA,NA,"Ostatní záležitosti kultury, církví a sdělovacích prostředků",4863304
NA,NA,NA,NA,"Pořízení, zachování a obnova hodnot místního kulturního, národního a historického povědomí",1767097.32
NA,NA,NA,NA,"Činnosti knihovnické",33563367
NA,NA,NA,NA,"Činnosti muzeí a galerií",139303967.27
NA,NA,NA,NA,"Činnosti památkových ústavů, hradů a zámků",5284269
NA,NA,NA,"Ochrana životního prostředí","Chráněné části přírody",345030
NA,NA,NA,NA,"Ekologická výchova a osvěta",10676404
NA,NA,NA,NA,"Monitoring ochrany ovzduší",65000
NA,NA,NA,NA,"Ochrana druhů a stanovišť",1934452
NA,NA,NA,NA,"Ostatní ekologické záležitosti",107936.9
NA,NA,NA,NA,"Ostatní nakládání s odpady",188413
NA,NA,NA,NA,"Prevence vzniku odpadů",260000
NA,NA,NA,NA,"Péče o vzhled obcí a veřejnou zeleň",5302723.3
NA,NA,NA,NA,"Změny technologií vytápění",1263539.74
NA,NA,NA,"Ostatní činnosti související se službami pro obyvatelstvo","Ostatní činnosti související se službami pro obyvatelstvo",423500
NA,NA,NA,"Tělovýchova a zájmová činnost","Ostatní tělovýchovná činnost",2051935
NA,NA,NA,NA,"Ostatní zájmová činnost a rekreace",539198.95
NA,NA,NA,NA,"Sportovní zařízení v majetku obcí",4001227.45
NA,NA,NA,NA,"Využití volného času dětí a mládeže",72111930.8
NA,NA,NA,"Vzdělávání a školské služby","Druhý stupeň základních škol",2037003
NA,NA,NA,NA,"Dětské domovy",83911198
NA,NA,NA,NA,"Gymnazia",446683667.16
NA,NA,NA,NA,"Mateřské školy",817891461
NA,NA,NA,NA,"Mateřské školy pro děti se speciálními vzdělávacími potřebami",12924444
NA,NA,NA,NA,"Ostatní správa ve vzdělávání jinde nezařazená",1299934.94
NA,NA,NA,NA,"Ostatní záležitosti vzdělávání",5518461.21
NA,NA,NA,NA,"První stupeň základních škol",402558168
NA,NA,NA,NA,"Střediska praktického vyučování a školní hospodářství",8266965
NA,NA,NA,NA,"Střediska volného času",368118
NA,NA,NA,NA,"Střední odborné školy",585744534.14
NA,NA,NA,NA,"Střední školy a konzervatoře pro žáky se speciálními vzdělávacími potřebami",13859064
NA,NA,NA,NA,"Střední školy poskytující střední vzdělání s výučním listem",694973444.79
NA,NA,NA,NA,"Vyšší odborné školy",5264459
NA,NA,NA,NA,"Zařízení výchovného poradenství",40261200
NA,NA,NA,NA,"Základní umělecké školy",264864413
NA,NA,NA,NA,"Základní školy",2364785543
NA,NA,NA,NA,"Základní školy pro žáky se speciálními vzdělávacími potřebami",291467910
NA,NA,NA,NA,"Školní stravování",53777996
NA,NA,NA,"Zdravotnictví","Lékařská služba první pomoci",14575000
NA,NA,NA,NA,"Ostatní nemocnice",213360772.36
NA,NA,NA,NA,"Ostatní ústavní péče",43863900
NA,NA,NA,NA,"Ostatní činnost ve zdravotnictví",11561879.25
NA,NA,NA,NA,"Zdravotnická záchranná služba",279328360.95
NA,NA,"Sociální věci a politika zaměstnanosti","Sociální služby a společné činnosti v sociálním zabezpečení a politice zaměstnanosti","Azylové domy, nízkoprahová denní centra a noclehárny",33267800
NA,NA,NA,NA,"Chráněné bydlení",58410800
NA,NA,NA,NA,"Denní stacionáře a centra denních služeb",34871160
NA,NA,NA,NA,"Domovy pro osoby se zdravotním postižením a domovy se zvláštním režimem",224469906.65
NA,NA,NA,NA,"Domovy pro seniory",290461076.76
NA,NA,NA,NA,"Domy na půl cesty",1662300
NA,NA,NA,NA,"Krizová pomoc",3399700
NA,NA,NA,NA,"Nízkoprahová zařízení pro děti a mládež",21442800
NA,NA,NA,NA,"Odborné sociální poradenství",28501520
NA,NA,NA,NA,"Osobní asistence, pečovatelská služba a podpora samostatného bydlení",122071220
NA,NA,NA,NA,"Ostatní služby a činnosti v oblasti sociální prevence",17374200
NA,NA,NA,NA,"Ostatní služby a činnosti v oblasti sociální péče",19959080
NA,NA,NA,NA,"Ostatní sociální péče a pomoc ostatním skupinám obyvatelstva",851644.1
NA,NA,NA,NA,"Ostatní sociální péče a pomoc rodině a manželství",155742
NA,NA,NA,NA,"Ostatní záležitosti sociálních věcí a politiky zaměstnanosti",2606969.68
NA,NA,NA,NA,"Průvodcovské a předčitatelské služby",591600
NA,NA,NA,NA,"Raná péče a sociálně aktivizační služby pro rodiny s dětmi",19629100
NA,NA,NA,NA,"Služby následné péče, terapeutické komunity a kontaktní centra",11186800
NA,NA,NA,NA,"Sociální poradenství pro staré občany",37012380
NA,NA,NA,NA,"Sociálně terapeutické dílny",32049900
NA,NA,NA,NA,"Terénní programy",20164900
NA,NA,NA,NA,"Tísňová péče",1196500
NA,NA,NA,NA,"Týdenní stacionáře",13637400
NA,NA,NA,NA,"Zařízení pro děti vyžadující okamžitou pomoc",4547080
NA,NA,"Všeobecná veřejná správa a služby","Finanční operace","Obecné příjmy a výdaje z finančních operací",4268587.62
NA,NA,NA,NA,"Ostatní finanční operace",2903501.38
NA,NA,NA,NA,"Převody vlastním fondům v rozpočtech územní úrovně",105650
NA,NA,NA,"Jiné veřejné služby a činnosti","Mezinárodní spolupráce (jinde nezařazená)",2193523.25
NA,NA,NA,"Ostatní činnosti","Finanční vypořádání minulých let",56226592.19
NA,NA,NA,NA,"Ostatní činnosti jinde nezařazené",13075871
NA,NA,NA,"Státní moc, státní správa, územní samospráva a politické strany","Volby do zastupitelstev územních samosprávných celků",12211.8
NA,NA,NA,NA,"Zastupitelstva krajů",33271338.03
NA,NA,NA,NA,"Činnost regionální správy",246715712.43
NA,NA,"Zemědělství, lesní hospodářství a rybářství","Zemědělství, lesní hospodářství a rybářství","Ostatní zemědělská a potravinářská činnost a rozvoj",804325
NA,NA,NA,NA,"Pěstební činnost",556740
