"Organizace..název.","Rok..kód.","Skupina.paragrafů..název.","Oddíl.paragrafů..název.","Paragraf..název.","Výsledek.od.počátku.roku"
NA,NA,"Bezpečnost státu a právní ochrana","Bezpečnost a veřejný pořádek","Ostatní záležitosti bezpečnosti,veřejného pořádku",4000000
NA,NA,NA,"Civilní připravenost na krizové stavy","Ochrana obyvatelstva",363499
NA,NA,NA,NA,"Činnost orgánů krizového řízení na územní úrovni a dalších územních správních úřadů v oblasti krizového řízení",91286.6
NA,NA,NA,NA,"Ostatní záležitosti požární ochrany a integrovaného záchranného systému",213044
NA,NA,NA,NA,"Požární ochrana - dobrovolná část",33301432.4
NA,NA,NA,NA,"Požární ochrana - profesionální část",750000
NA,NA,"Průmyslová a ostatní odvětví hospodářství","Doprava","Bezpečnost silničního provozu",2564941
NA,NA,NA,NA,"Mezinárodní spolupráce v dopravě",709018.48
NA,NA,NA,NA,"Ostatní záležitosti pozemních komunikací",70931430.51
NA,NA,NA,NA,"Ostatní záležitosti v dopravě",192619
NA,NA,NA,NA,"Ostatní záležitosti v silniční dopravě",450000
NA,NA,NA,NA,"Ostatní záležitosti vnitrozemské plavby",960000
NA,NA,NA,NA,"Provoz veřejné silniční dopravy",513168577.52
NA,NA,NA,NA,"Provoz veřejné železniční dopravy",1419824830
NA,NA,NA,NA,"Silnice",1724660156.76
NA,NA,NA,NA,"Železniční dráhy",1000000
NA,NA,NA,"Průmysl, stavebnictví, obchod a služby","Cestovní ruch",111585634.55
NA,NA,NA,NA,"Ostatní služby",606969
NA,NA,NA,NA,"Ostatní záležitosti těžebního průmyslu a energetiky",375000
NA,NA,NA,NA,"Stavebnictví",129581
NA,NA,NA,NA,"Těžba nerostných surovin kromě paliv",562500
NA,NA,NA,NA,"Ubytování a stravování",52241
NA,NA,NA,NA,"Úspora energie a obnovitelné zdroje",701812.5
NA,NA,NA,NA,"Činnost ostatních orgánů státní správy v průmyslu, stavebnictví, obchodu a službách",579380
NA,NA,NA,"Vodní hospodářství","Odvádění a čištění odpadních vod a nakládání s kaly",121567865.22
NA,NA,NA,NA,"Pitná voda",66627007.56
NA,NA,NA,NA,"Vodní díla v zemědělské krajině",3483857
NA,NA,NA,NA,"Záležitosti vodních toků a vodohospodářských děl jinde nezařazené",1335268
NA,NA,NA,"Všeobecné hospodářské záležitosti a ostatní ekonomické funkce","Podpora podnikání",2641886.98
NA,NA,"Služby pro obyvatelstvo","Bydlení, komunální služby a územní rozvoj","Bytové hospodářství",1255000
NA,NA,NA,NA,"Komunální služby a územní rozvoj jinde nezařazené",24030883
NA,NA,NA,NA,"Nebytové hospodářství",8285650
NA,NA,NA,NA,"Ostatní záležitosti bydlení, komunálních služeb a územního rozvoje",855095
NA,NA,NA,NA,"Pohřebnictví",1050000
NA,NA,NA,NA,"Veřejné osvětlení",14436761.8
NA,NA,NA,NA,"Výstavba a údržba místních inženýrských sítí",348327
NA,NA,NA,NA,"Územní plánování",5771480.25
NA,NA,NA,NA,"Územní rozvoj",70811268.9
NA,NA,NA,"Kultura, církve a sdělovací prostředky","Divadelní činnost",2666672
NA,NA,NA,NA,"Ostatní záležitosti kultury",11615492.75
NA,NA,NA,NA,"Ostatní záležitosti kultury, církví a sdělovacích prostředků",3793892
NA,NA,NA,NA,"Ostatní záležitosti sdělovacích prostředků",221250
NA,NA,NA,NA,"Pořízení, zachování a obnova hodnot místního kulturního, národního a historického povědomí",5988034.75
NA,NA,NA,NA,"Rozhlas a televize",998585
NA,NA,NA,NA,"Zachování a obnova kulturních památek",35451818.95
NA,NA,NA,NA,"Zájmová činnost v kultuře",6101456
NA,NA,NA,NA,"Činnosti knihovnické",47514452
NA,NA,NA,NA,"Činnosti muzeí a galerií",210508838.29
NA,NA,NA,NA,"Činnosti památkových ústavů, hradů a zámků",7247000
NA,NA,NA,"Ochrana životního prostředí","Chráněné části přírody",14929037.74
NA,NA,NA,NA,"Ekologická výchova a osvěta",3694372
NA,NA,NA,NA,"Monitoring ochrany ovzduší",1090000
NA,NA,NA,NA,"Ochrana druhů a stanovišť",3400449
NA,NA,NA,NA,"Ostatní ekologické záležitosti",302874
NA,NA,NA,NA,"Ostatní nakládání s odpady",4195801
NA,NA,NA,NA,"Ostatní správa v ochraně životního prostředí",76800
NA,NA,NA,NA,"Ostatní činnosti k ochraně ovzduší",240000
NA,NA,NA,NA,"Prevence vzniku odpadů",876000
NA,NA,NA,NA,"Péče o vzhled obcí a veřejnou zeleň",28015675.59
NA,NA,NA,"Tělovýchova a zájmová činnost","Ostatní tělovýchovná činnost",4799988.3
NA,NA,NA,NA,"Ostatní zájmová činnost a rekreace",2556962
NA,NA,NA,NA,"Sportovní zařízení v majetku obcí",23120662
NA,NA,NA,NA,"Využití volného času dětí a mládeže",105449804
NA,NA,NA,"Vzdělávání a školské služby","Domovy mládeže",483734
NA,NA,NA,NA,"Druhý stupeň základních škol",6687494
NA,NA,NA,NA,"Gymnazia",621312790.95
NA,NA,NA,NA,"Mateřské školy",1260571398.85
NA,NA,NA,NA,"Mateřské školy pro děti se speciálními vzdělávacími potřebami",19275191
NA,NA,NA,NA,"Ostatní správa ve vzdělávání jinde nezařazená",34436784.2
NA,NA,NA,NA,"Ostatní záležitosti vzdělávání",175956111.4
NA,NA,NA,NA,"Ostatní záležitosti základního vzdělávání",4592299
NA,NA,NA,NA,"Ostatní školní stravování",1240804
NA,NA,NA,NA,"První stupeň základních škol",467597395
NA,NA,NA,NA,"Střediska praktického vyučování a školní hospodářství",12838636.6
NA,NA,NA,NA,"Střední odborné školy",1013489682.46
NA,NA,NA,NA,"Střední školy a konzervatoře pro žáky se speciálními vzdělávacími potřebami",7636038
NA,NA,NA,NA,"Střední školy poskytující střední vzdělání s výučním listem",1222012485.77
NA,NA,NA,NA,"Vyšší odborné školy",16946776
NA,NA,NA,NA,"Zařízení výchovného poradenství",44467880
NA,NA,NA,NA,"Základní umělecké školy",377684240.8
NA,NA,NA,NA,"Základní školy",3253262265.71
NA,NA,NA,NA,"Základní školy pro žáky se speciálními vzdělávacími potřebami",447925947.95
NA,NA,NA,NA,"Školní družiny a kluby",147784131
NA,NA,NA,NA,"Školní stravování",325493371
NA,NA,NA,"Zdravotnictví","Lékařská služba první pomoci",27000000
NA,NA,NA,NA,"Ostatní nemocnice",1198685487.84
NA,NA,NA,NA,"Ostatní zdravotnická zařízení a služby pro zdravotnictví",2384036
NA,NA,NA,NA,"Ostatní ústavní péče",82538682.4
NA,NA,NA,NA,"Ostatní činnost ve zdravotnictví",19385106.04
NA,NA,NA,NA,"Prevence před drogami, alkoholem, nikotinem aj. závislostmi",164233.4
NA,NA,NA,NA,"Zdravotnická záchranná služba",410195024.02
NA,NA,"Sociální věci a politika zaměstnanosti","Dávky a podpory v sociálním zabezpečení","Ošetřovné",509889
NA,NA,NA,"Politika zaměstnanosti","Veřejně prospěšné práce",1000000
NA,NA,NA,"Sociální služby a společné činnosti v sociálním zabezpečení a politice zaměstnanosti","Azylové domy, nízkoprahová denní centra a noclehárny",770688.8
NA,NA,NA,NA,"Centra sociálně rehabilitačních služeb",10407520
NA,NA,NA,NA,"Chráněné bydlení",606000.2
NA,NA,NA,NA,"Denní stacionáře a centra denních služeb",445719.12
NA,NA,NA,NA,"Domovy pro osoby se zdravotním postižením a domovy se zvláštním režimem",287130614.04
NA,NA,NA,NA,"Krizová pomoc",303333.32
NA,NA,NA,NA,"Nízkoprahová zařízení pro děti a mládež",635034.09
NA,NA,NA,NA,"Odborné sociální poradenství",1304754.44
NA,NA,NA,NA,"Osobní asistence, pečovatelská služba a podpora samostatného bydlení",6052925.36
NA,NA,NA,NA,"Ostatní služby a činnosti v oblasti sociální prevence",1818847.72
NA,NA,NA,NA,"Ostatní služby a činnosti v oblasti sociální péče",544000
NA,NA,NA,NA,"Ostatní sociální péče a pomoc ostatním skupinám obyvatelstva",884333.4
NA,NA,NA,NA,"Ostatní sociální péče a pomoc rodině a manželství",5217969.19
NA,NA,NA,NA,"Ostatní správa v sociálním zabezpečení a politice zaměstnanosti",951600
NA,NA,NA,NA,"Ostatní záležitosti sociálních věcí a politiky zaměstnanosti",134365312.33
NA,NA,NA,NA,"Průvodcovské a předčitatelské služby",236666.8
NA,NA,NA,NA,"Raná péče a sociálně aktivizační služby pro rodiny s dětmi",2565622.47
NA,NA,NA,NA,"Služby následné péče, terapeutické komunity a kontaktní centra",3406060.22
NA,NA,NA,NA,"Sociální poradenství pro staré občany",1945474.2
NA,NA,NA,NA,"Sociální péče a pomoc přistěhovalcům a vybraným etnikům",7000
NA,NA,NA,NA,"Sociálně terapeutické dílny",347543.4
NA,NA,NA,NA,"Terénní programy",653195.4
NA,NA,NA,NA,"Tísňová péče",427933
NA,NA,NA,NA,"Týdenní stacionáře",267333.32
NA,NA,NA,NA,"Základní sociální poradenství",176666.64
NA,NA,NA,NA,"Ústavy péče pro mládež",124809420.8
NA,NA,"Všeobecná veřejná správa a služby","Finanční operace","Obecné příjmy a výdaje z finančních operací",38646367.85
NA,NA,NA,NA,"Ostatní finanční operace",24990445.5
NA,NA,NA,"Ostatní činnosti","Finanční vypořádání minulých let",58263760.66
NA,NA,NA,NA,"Ostatní činnosti jinde nezařazené",442752
NA,NA,NA,"Státní moc, státní správa, územní samospráva a politické strany","Ostatní všeobecná vnitřní správa jinde nezařazená",349703
NA,NA,NA,NA,"Volby do Parlamentu ČR",94037
NA,NA,NA,NA,"Volby do zastupitelstev územních samosprávných celků",110010.6
NA,NA,NA,NA,"Zastupitelstva krajů",66336607.57
NA,NA,NA,NA,"Zastupitelstva obcí",192280
NA,NA,NA,NA,"Činnost místní správy",55437180
NA,NA,NA,NA,"Činnost regionální správy",546737579.86
NA,NA,"Zemědělství, lesní hospodářství a rybářství","Zemědělství, lesní hospodářství a rybářství","Ostatní zemědělská a potravinářská činnost a rozvoj",1245183.1
NA,NA,NA,NA,"Pěstební činnost",20000000
NA,NA,NA,NA,"Udržování výrobního potenciálu zemědělství, zemědělský půdní fond a mimoprodukční funkce zemědělství",79526
