"Organizace..název.","Rok..kód.","Skupina.paragrafů..název.","Oddíl.paragrafů..název.","Paragraf..název.","Výsledek.od.počátku.roku"
NA,2014,"Bezpečnost státu a právní ochrana","Bezpečnost a veřejný pořádek","Bezpečnost a veřejný pořádek",5016152.58
NA,NA,NA,NA,"Ostatní záležitosti bezpečnosti,veřejného pořádku",193400
NA,NA,NA,"Civilní připravenost na krizové stavy","Ochrana obyvatelstva",100000
NA,NA,NA,NA,"Ostatní správa v oblasti krizového řízení",56591077.21
NA,NA,NA,NA,"Ostatní záležitosti civilní připravenosti na krizové stavy",543000
NA,NA,NA,NA,"Záležitosti krizového řízení jinde nezařazené",200000
NA,NA,NA,"Požární ochrana a integrovaný záchranný systém","Ostatní složky a činnosti integrovaného záchranného systému",16491.2
NA,NA,NA,NA,"Ostatní záležitosti požární ochrany",105000
NA,NA,NA,NA,"Ostatní záležitosti požární ochrany a integrovaného záchranného systému",138894
NA,NA,NA,NA,"Požární ochrana - dobrovolná část",15186216
NA,NA,NA,NA,"Požární ochrana - profesionální část",2965052.21
NA,NA,"Průmyslová a ostatní odvětví hospodářství","Doprava","Bezpečnost silničního provozu",752400
NA,NA,NA,NA,"Ostatní záležitosti pozemních komunikací",82162949.87
NA,NA,NA,NA,"Ostatní záležitosti v dopravě",25120558.14
NA,NA,NA,NA,"Ostatní záležitosti v silniční dopravě",903606.17
NA,NA,NA,NA,"Ostatní záležitosti železniční dopravy",1116408.32
NA,NA,NA,NA,"Provoz veřejné silniční dopravy",477208042.01
NA,NA,NA,NA,"Provoz veřejné železniční dopravy",788544378.66
NA,NA,NA,NA,"Silnice",850694601.02
NA,NA,NA,"Průmysl, stavebnictví, obchod a služby","Cestovní ruch",31167523.7
NA,NA,NA,NA,"Mezinárodní spolupráce v průmyslu, stavebnictví, obchodu a službách",82440
NA,NA,NA,"Vodní hospodářství","Odvádění a čištění odpadních vod a nakládání s kaly",10016610.32
NA,NA,NA,NA,"Odvádění a čištění odpadních vod jinde nezařazené",300000
NA,NA,NA,NA,"Ostatní záležitosti vodního hospodářství",15333405
NA,NA,NA,NA,"Pitná voda",4511007.88
NA,NA,NA,NA,"Prevence znečišťování vody",5157341.89
NA,NA,NA,NA,"Protierozní ochrana",595669
NA,NA,NA,NA,"Úpravy drobných vodních toků",3505594
NA,NA,NA,"Všeobecné hospodářské záležitosti a ostatní ekonomické funkce","Mezinárodní spolupráce ve všeobecných hospodářských záležitostech.",7224865.25
NA,NA,"Služby pro obyvatelstvo","Bydlení, komunální služby a územní rozvoj","Komunální služby a územní rozvoj jinde nezařazené",191317598.28
NA,NA,NA,NA,"Pohřebnictví",316000
NA,NA,NA,NA,"Veřejné osvětlení",764891
NA,NA,NA,NA,"Územní plánování",1489659.5
NA,NA,NA,NA,"Územní rozvoj",127004700.2
NA,NA,NA,"Kultura, církve a sdělovací prostředky","Divadelní činnost",2768135.39
NA,NA,NA,NA,"Filmová tvorba, distribuce, kina a shromažďování audiovizuálních archiválií",160000
NA,NA,NA,NA,"Hudební činnost",4711134
NA,NA,NA,NA,"Ostatní záležitosti kultury",10934126
NA,NA,NA,NA,"Ostatní záležitosti kultury, církví a sdělovacích prostředků",1372906
NA,NA,NA,NA,"Ostatní záležitosti ochrany památek a péče o kulturní dědictví",802921.22
NA,NA,NA,NA,"Pořízení, zachování a obnova hodnot místního kulturního, národního a historického povědomí",742026.8
NA,NA,NA,NA,"Vydavatelská činnost",200000
NA,NA,NA,NA,"Výstavní činnosti v kultuře",169809
NA,NA,NA,NA,"Výzkum a vývoj v oblasti kultury, církví a sdělovacích prostředků",5310000
NA,NA,NA,NA,"Zachování a obnova kulturních památek",13235302.8
NA,NA,NA,NA,"Zájmová činnost v kultuře",240000
NA,NA,NA,NA,"Činnosti knihovnické",50258412.13
NA,NA,NA,NA,"Činnosti muzeí a galerií",119886104.57
NA,NA,NA,NA,"Činnosti památkových ústavů, hradů a zámků",5281371.31
NA,NA,NA,NA,"Činnosti registrovaných církví a náboženských společností",24900
NA,NA,NA,"Ochrana životního prostředí","Chráněné části přírody",6249405.08
NA,NA,NA,NA,"Dekontaminace půd a čištění spodní vody",148203.22
NA,NA,NA,NA,"Ekologická výchova a osvěta",1296707.8
NA,NA,NA,NA,"Mezinárodní spolupráce v životním prostředí",18686.4
NA,NA,NA,NA,"Monitoring nakládání s odpady",279889
NA,NA,NA,NA,"Monitoring ochrany ovzduší",1190409.73
NA,NA,NA,NA,"Ochrana druhů a stanovišť",821414.5
NA,NA,NA,NA,"Ostatní ekologické záležitosti",1482050.25
NA,NA,NA,NA,"Ostatní správa v ochraně životního prostředí",50500
NA,NA,NA,NA,"Ostatní činnosti k ochraně ovzduší",790130
NA,NA,NA,NA,"Ostatní činnosti k ochraně přírody a krajiny",1017055.85
NA,NA,NA,NA,"Protierozní, protilavinová a protipožární ochrana",186300
NA,NA,NA,NA,"Péče o vzhled obcí a veřejnou zeleň",693000
NA,NA,NA,NA,"Rekultivace půdy v důsledku těžební a důlní činnosti, po skládkách odpadů apod.",980000
NA,NA,NA,NA,"Sběr a svoz komunálních odpadů",140560
NA,NA,NA,NA,"Sběr a svoz nebezpečných odpadů",518194
NA,NA,NA,NA,"Změny technologií vytápění",13730000
NA,NA,NA,"Ostatní činnosti související se službami pro obyvatelstvo","Ostatní činnosti související se službami pro obyvatelstvo",3250295.23
NA,NA,NA,"Tělovýchova a zájmová činnost","Ostatní tělovýchovná činnost",25170217
NA,NA,NA,NA,"Ostatní zájmová činnost a rekreace",3942056
NA,NA,NA,NA,"Sportovní zařízení v majetku obcí",29576866.37
NA,NA,NA,NA,"Využití volného času dětí a mládeže",91151064
NA,NA,NA,"Vzdělávání a školské služby","Gymnazia",549523554.2
NA,NA,NA,NA,"Konzervatoře",35352336
NA,NA,NA,NA,"Mateřské školy",918597410.96
NA,NA,NA,NA,"Mateřské školy pro děti se speciálními vzdělávacími potřebami",26521830
NA,NA,NA,NA,"Ostatní zařízení středního vzdělávání",40000
NA,NA,NA,NA,"Ostatní záležitosti vzdělávání",223738720.82
NA,NA,NA,NA,"Ostatní záležitosti základního vzdělávání",140000
NA,NA,NA,NA,"Ostatní školní stravování",3608169
NA,NA,NA,NA,"První stupeň základních škol",195002947.8
NA,NA,NA,NA,"Střediska praktického vyučování a školní hospodářství",1473000
NA,NA,NA,NA,"Střední odborné školy",999951411.7
NA,NA,NA,NA,"Střední školy poskytující střední vzdělání s výučním listem",901044578.94
NA,NA,NA,NA,"Vysoké školy",500000
NA,NA,NA,NA,"Výchovné ústavy a dětské domovy se školou",25000
NA,NA,NA,NA,"Zařízení výchovného poradenství",45543664
NA,NA,NA,NA,"Základní umělecké školy",234137309
NA,NA,NA,NA,"Základní školy",2971246565.2
NA,NA,NA,NA,"Základní školy pro žáky se speciálními vzdělávacími potřebami",410419067.51
NA,NA,NA,NA,"Školní stravování",37729333
NA,NA,NA,"Zdravotnictví","Další vzdělávání pracovníků ve zdravotnictví",100000
NA,NA,NA,NA,"Hospice",1380000
NA,NA,NA,NA,"Lékařská služba první pomoci",15844757.21
NA,NA,NA,NA,"Mezinárodní spolupráce ve zdravotnictví",57409.57
NA,NA,NA,NA,"Odborné léčebné ústavy",12303177.98
NA,NA,NA,NA,"Ostatní nemocnice",82279281
NA,NA,NA,NA,"Ostatní ústavní péče",64094000
NA,NA,NA,NA,"Ostatní činnost ve zdravotnictví",4669634.82
NA,NA,NA,NA,"Pomoc zdravotně postiženým a chronicky nemocným",44000
NA,NA,NA,NA,"Prevence před drogami, alkoholem, nikotinem aj. závislostmi",64800
NA,NA,NA,NA,"Zdravotnická záchranná služba",287749335.42
NA,NA,"Sociální věci a politika zaměstnanosti","Politika zaměstnanosti","Ostatní podpora zaměstnanosti",240000
NA,NA,NA,"Sociální služby a společné činnosti v sociálním zabezpečení a politice zaměstnanosti","Azylové domy, nízkoprahová denní centra a noclehárny",3260000
NA,NA,NA,NA,"Chráněné bydlení",560000
NA,NA,NA,NA,"Denní stacionáře a centra denních služeb",270000
NA,NA,NA,NA,"Domovy pro osoby se zdravotním postižením a domovy se zvláštním režimem",181814721.83
NA,NA,NA,NA,"Domovy pro seniory",263642759.83
NA,NA,NA,NA,"Nízkoprahová zařízení pro děti a mládež",970000
NA,NA,NA,NA,"Odborné sociální poradenství",440000
NA,NA,NA,NA,"Osobní asistence, pečovatelská služba a podpora samostatného bydlení",310000
NA,NA,NA,NA,"Ostatní služby a činnosti v oblasti sociální prevence",500000
NA,NA,NA,NA,"Ostatní služby a činnosti v oblasti sociální péče",480000
NA,NA,NA,NA,"Ostatní sociální péče a pomoc ostatním skupinám obyvatelstva",138400
NA,NA,NA,NA,"Ostatní záležitosti sociálních věcí a politiky zaměstnanosti",81579073.66
NA,NA,NA,NA,"Pečovatelská služba pro rodinu a děti",130000
NA,NA,NA,NA,"Průvodcovské a předčitatelské služby",100000
NA,NA,NA,NA,"Raná péče a sociálně aktivizační služby pro rodiny s dětmi",990000
NA,NA,NA,NA,"Služby následné péče, terapeutické komunity a kontaktní centra",3250000
NA,NA,NA,NA,"Sociální pomoc osobám v hmotné nouzi a občanům sociálně nepřizpůsobivým",50000
NA,NA,NA,NA,"Sociální poradenství pro staré občany",280000
NA,NA,NA,NA,"Sociální péče a pomoc přistěhovalcům a vybraným etnikům",995789.6
NA,NA,NA,NA,"Sociálně terapeutické dílny",130000
NA,NA,NA,NA,"Tísňová péče",30000
NA,NA,NA,NA,"Zařízení pro děti vyžadující okamžitou pomoc",47129040
NA,NA,NA,NA,"Ústavy péče pro mládež",268870119.97
NA,NA,"Všeobecná veřejná správa a služby","Finanční operace","Obecné příjmy a výdaje z finančních operací",19830318.99
NA,NA,NA,NA,"Ostatní finanční operace",20604310.38
NA,NA,NA,NA,"Pojištění funkčně nespecifikované",18249214
NA,NA,NA,"Jiné veřejné služby a činnosti","Humanitární zahraniční pomoc přímá",1000000
NA,NA,NA,NA,"Mezinárodní spolupráce (jinde nezařazená)",585293.63
NA,NA,NA,NA,"Ostatní zahraniční pomoc",22051756.69
NA,NA,NA,NA,"Rozvojová zahraniční pomoc",643793.76
NA,NA,NA,"Ostatní činnosti","Finanční vypořádání minulých let",4210028.96
NA,NA,NA,NA,"Ostatní činnosti jinde nezařazené",645514.25
NA,NA,NA,"Státní moc, státní správa, územní samospráva a politické strany","Volby do Evropského parlamentu",49076
NA,NA,NA,NA,"Volby do zastupitelstev územních samosprávných celků",104778
NA,NA,NA,NA,"Zastupitelstva krajů",44322323.19
NA,NA,NA,NA,"Zastupitelstva obcí",16768
NA,NA,NA,NA,"Činnost místní správy",1961000
NA,NA,NA,NA,"Činnost regionální správy",550762475.4
NA,NA,NA,NA,"Činnost regionálních rad",11031000
NA,NA,"Zemědělství, lesní hospodářství a rybářství","Zemědělství, lesní hospodářství a rybářství","Celospolečenské funkce lesů",3222046.87
NA,NA,NA,NA,"Mezinárodní spolupráce v zemědělství",100000
NA,NA,NA,NA,"Ostatní zemědělská a potravinářská činnost a rozvoj",6419589.09
NA,NA,NA,NA,"Pěstební činnost",6761768
