[
{"name" : "vzdělávání a školské služby",
"data" : [4575976500,4584170464,4651302323,4790758635,4804540245,4994081748]},
{"name" : "zdravotnictví",
"data" : [1679293910,806213429,834858587,397620379,664405538,793452176]},
{"name" : "dopravu",
"data" : [2363580140,2192865267,1728280223,1944060156,2151565807,2653054813]},
{"name" : "sociální služby",
"data" : [470972580,412364262,504488461,384653714,716858805,877052712]},
{"name" : "vlastní fungování",
"data" : [328432420,324312131,362797687,312316125,315394533,328001889]},
{"name" : "kulturu",
"data" : [163122790,162546537,180559056,257400856,186314927,183292822]},
{"name" : "tělovýchovu a zájmovou činnost",
"data" : [67575890,98127721,86843296,92878095,73690017,39612136]},
{"name" : "ochranu životního prostředí",
"data" : [18403530,17014972,17216580,23168752,33439679,47003345]},
{"name" : "požární ochranu",
"data" : [15268830,15903325,14147929,30253410,17162511,15701414]},
{"name" : "civilní obranu",
"data" : [2675000,200000,1000000,30000,20000]},
{"name" : "bezpečnost a veřejný pořádek",
"data" : [1476960,5132207,6013974,3265420,5381834,4735833]}]
