{
"Bezpečnost státu a právní ochrana": {
	"Bezpečnost a veřejný pořádek": {
		"Bezpečnost a veřejný pořádek": 4039057.8,
		"Ostatní záležitosti bezpečnosti,veřejného pořádku": 1974916.07
	},
	"Civilní připravenost na krizové stavy": {
		"Ostatní správa v oblasti hospodářských opatření pro krizové stavy": 200000
	},
	"Požární ochrana a integrovaný záchranný systém": {
		"Mezinárodní spolupráce v oblasti požární ochrany a integrovaném záchranném systému": 190649.13,
		"Ostatní složky a činnosti integrovaného záchranného systému": 25818,
		"Požární ochrana - dobrovolná část": 9702280,
		"Požární ochrana - profesionální část": 4229182.36
		}
	},
"Průmyslová a ostatní odvětví hospodářství": {
	"Doprava": {
		"Bezpečnost silničního provozu": 1451892,
		"Letiště": 2366118.75,
		"Mezinárodní spolupráce v dopravě": 1796,
		"Provoz veřejné silniční dopravy": 258917781.89,
		"Provoz veřejné železniční dopravy": 388680778.63,
		"Silnice": 1076861855.9
	},
	"Průmysl, stavebnictví, obchod a služby": {
		"Cestovní ruch": 22201010.69,
		"Ostatní záležitosti zahraničního obchodu": 142956.25,
		"Vnitřní obchod": 191048,
		"Záležitosti průmyslu, stavebnictví, obchodu a služeb jinde nezařazené": 185760,
		"Úspora energie a obnovitelné zdroje": 29514332.76
	},
	"Vodní hospodářství": {
		"Odvádění a čištění odpadních vod a nakládání s kaly": 49000000,
		"Ostatní záležitosti vodního hospodářství": 5019600
	},
	"Všeobecné hospodářské záležitosti a ostatní ekonomické funkce": {
		"Podpora podnikání": 5502826
		}
	},
"Služby pro obyvatelstvo": {
	"Bydlení, komunální služby a územní rozvoj": {
		"Komunální služby a územní rozvoj jinde nezařazené": 10653031.46,
		"Ostatní záležitosti bydlení, komunálních služeb a územního rozvoje": 72212153.5,
		"Územní plánování": 5645186,
		"Územní rozvoj": 79059729.58
	},
	"Kultura, církve a sdělovací prostředky": {
		"Divadelní činnost": 26932000,
		"Filmová tvorba, distribuce, kina a shromažďování audiovizuálních archiválií": 600000,
		"Hudební činnost": 1455000,
		"Ostatní záležitosti kultury": 2503686.6,
		"Ostatní záležitosti kultury, církví a sdělovacích prostředků": 983020,
		"Ostatní záležitosti ochrany památek a péče o kulturní dědictví": 29845893,
		"Pořízení, zachování a obnova hodnot místního kulturního, národního a historického povědomí": 656619,
		"Výstavní činnosti v kultuře": 526836,
		"Zachování a obnova kulturních památek": 14297591,
		"Činnosti knihovnické": 28657000,
		"Činnosti muzeí a galerií": 74101410.43
	},
	"Ochrana životního prostředí": {
		"Chráněné části přírody": 6627927,
		"Ekologická výchova a osvěta": 210357,
		"Ochrana druhů a stanovišť": 4565368,
		"Ostatní nakládání s odpady": 1439820,
		"Ostatní činnosti k ochraně ovzduší": 774408,
		"Prevence vzniku odpadů": 1822814,
		"Protiradonová opatření": 450000,
		"Péče o vzhled obcí a veřejnou zeleň": 903079,
		"Sběr a svoz nebezpečných odpadů": 422807
	},
	"Ostatní činnosti související se službami pro obyvatelstvo": {
		"Ostatní činnosti související se službami pro obyvatelstvo": 100000
	},
	"Tělovýchova a zájmová činnost": {
		"Ostatní tělovýchovná činnost": 39662870.8,
		"Ostatní zájmová činnost a rekreace": 777191,
		"Využití volného času dětí a mládeže": 46403234.39
	},
	"Vzdělávání a školské služby": {
		"Domovy mládeže": 16912001,
		"Gymnazia": 351239386.06,
		"Mateřské školy": 478590462,
		"Mateřské školy pro děti se speciálními vzdělávacími potřebami": 2703000,
		"Ostatní záležitosti vzdělávání": 131797019.51,
		"Ostatní školní stravování": 2440028,
		"První stupeň základních škol": 295667961,
		"Sportovní školy - gymnázia": 4061600,
		"Střediska praktického vyučování a školní hospodářství": 6446612,
		"Střední odborné školy": 689824376.92,
		"Střední školy a konzervatoře pro žáky se speciálními vzdělávacími potřebami": 21716096.6,
		"Střední školy poskytující střední vzdělání s výučním listem": 673173771.01,
		"Vysoké školy": 2000000,
		"Vyšší odborné školy": 13951292,
		"Zařízení výchovného poradenství": 23755132.7,
		"Základní umělecké školy": 166947853.55,
		"Základní školy": 1613019190,
		"Základní školy pro žáky se speciálními vzdělávacími potřebami": 142032566.6,
		"Školní stravování": 15023974
	},
	"Zdravotnictví": {
		"Další vzdělávání pracovníků ve zdravotnictví": 990423.28,
		"Ostatní nemocnice": 608147263.06,
		"Ostatní speciální zdravotnická péče": 1986461.59,
		"Ostatní správa ve zdravotnictví jinde nezařazená": 579692,
		"Ostatní zdravotnická zařízení a služby pro zdravotnictví": 4770060,
		"Ostatní ústavní péče": 27819584,
		"Ostatní činnost ve zdravotnictví": 4418238.97,
		"Prevence před drogami, alkoholem, nikotinem aj. závislostmi": 33086,
		"Zdravotnická záchranná služba": 186113778
		}
	},
"Sociální věci a politika zaměstnanosti": {
	"Sociální služby a společné činnosti v sociálním zabezpečení a politice zaměstnanosti": {
		"Chráněné bydlení": 497300,
		"Denní stacionáře a centra denních služeb": 4988400,
		"Domovy pro osoby se zdravotním postižením a domovy se zvláštním režimem": 244606128.77,
		"Domy na půl cesty": 387800,
		"Odborné sociální poradenství": 1924200,
		"Osobní asistence, pečovatelská služba a podpora samostatného bydlení": 13305800,
		"Ostatní služby a činnosti v oblasti sociální prevence": 684000,
		"Ostatní služby a činnosti v oblasti sociální péče": 13388158,
		"Ostatní sociální péče a pomoc ostatním skupinám obyvatelstva": 577587,
		"Ostatní sociální péče a pomoc rodině a manželství": 11471174.37,
		"Ostatní záležitosti sociálních věcí a politiky zaměstnanosti": 105743144.64,
		"Raná péče a sociálně aktivizační služby pro rodiny s dětmi": 1782000,
		"Služby následné péče, terapeutické komunity a kontaktní centra": 3900900,
		"Sociální poradenství pro staré občany": 778600,
		"Sociálně terapeutické dílny": 633600,
		"Terénní programy": 400000,
		"Tísňová péče": 488000,
		"Týdenní stacionáře": 704600,
		"Zařízení pro děti vyžadující okamžitou pomoc": 3793551,
		"Zařízení pro výkon pěstounské péče": 626279,
		"Ústavy péče pro mládež": 93807238
		}
	},
"Všeobecná veřejná správa a služby": {
	"Finanční operace": {
		"Obecné příjmy a výdaje z finančních operací": 13406505.53
	},
	"Jiné veřejné služby a činnosti": {
		"Mezinárodní spolupráce (jinde nezařazená)": 6765364.1
	},
	"Ostatní činnosti": {
		"Finanční vypořádání minulých let": 2028352.88,
		"Ostatní činnosti jinde nezařazené": 209671,
		"Volby do zastupitelstev územních samosprávných celků": 91202.6,
		"Zastupitelstva krajů": 32606660.1,
		"Činnost regionální správy": 330099824.25
		}
	},
"Zemědělství, lesní hospodářství a rybářství": {
	"Zemědělství, lesní hospodářství a rybářství": {
		"Celospolečenské funkce lesů": 1000096.58,
		"Ostatní zemědělská a potravinářská činnost a rozvoj": 952288,
		"Ostatní záležitosti lesního hospodářství": 155715,
		"Podpora ostatních produkčních činností": 5153850,
		"Pěstební činnost": 22338266
		}
	}
}
