{"main":
[{"name":"Plzeňský kraj","y":4730.7,"drilldown":"CZ032"},{"name":"Kraj Vysočina","y":4037,"drilldown":"CZ063"},{"name":"Královéhradecký kraj","y":3913.2,"drilldown":"CZ052"},{"name":"Karlovarský kraj","y":3672.1,"drilldown":"CZ041"},{"name":"Pardubický kraj","y":3638,"drilldown":"CZ053"},{"name":"Středočeský kraj","y":3142.3,"drilldown":"CZ020"},{"name":"Jihočeský kraj","y":3135.6,"drilldown":"CZ031"},{"name":"Moravskoslezský kraj","y":2864.7,"drilldown":"CZ080"},{"name":"Zlínský kraj","y":2798.2,"drilldown":"CZ072"},{"name":"Liberecký kraj","y":2548.1,"drilldown":"CZ051"},{"name":"Jihomoravský kraj","y":2202.7,"drilldown":"CZ064"},{"name":"Olomoucký kraj","y":2081.9,"drilldown":"CZ071"},{"name":"Ústecký kraj","y":1956.2,"drilldown":"CZ042"}]
,"drilldown":[
{"name":"Jihočeský kraj",
"id":"CZ031",
"data": [
["Zdravotnická záchranná služba",1766.9],
["Ostatní nemocnice",1227.2],
["Prevence před drogami, alkoholem, nikotinem aj. závislostmi",46],
["Lékařská služba první pomoci",37.6],
["Ostatní činnost ve zdravotnictví",26.4],
["Ostatní speciální zdravotnická péče",20.4],
["Specializovaná ambulantní zdravotní péče",4.8],
["Ostatní zdravotnická zařízení a služby pro zdravotnictví",3.3],
["Ostatní ambulantní péče",1.4],
["Další vzdělávání pracovníků ve zdravotnictví",1.3],
["Stomatologická péče",0.2],
["Pomoc zdravotně postiženým a chronicky nemocným",0.1]]},
{"name":"Jihomoravský kraj",
"id":"CZ064",
"data": [
["Zdravotnická záchranná služba",1044.8],
["Ostatní nemocnice",742.1],
["Ostatní ústavní péče",163],
["Lékařská služba první pomoci",69.2],
["Lázeňské léčebny, ozdravovny, sanatoria",58.1],
["Prevence před drogami, alkoholem, nikotinem aj. závislostmi",32.1],
["Ostatní činnost ve zdravotnictví",24.1],
["Odborné léčebné ústavy",20],
["Programy paliativní péče",14.5],
["Léčebny dlouhodobě nemocných",12.1],
["Ostatní ambulantní péče",12],
["Ostatní speciální zdravotnická péče",6.8],
["Fakultní nemocnice",1.9],
["Mezinárodní spolupráce ve zdravotnictví",0.7],
["Pomoc zdravotně postiženým a chronicky nemocným",0.6],
["Všeobecná ambulantní péče",0.3],
["Ostatní výzkum a vývoj ve zdravotnictví",0.2],
["Stomatologická péče",0.2]]},
{"name":"Karlovarský kraj",
"id":"CZ041",
"data": [
["Zdravotnická záchranná služba",1974.5],
["Ostatní nemocnice",1172.3],
["Ostatní ústavní péče",307.6],
["Léčebny dlouhodobě nemocných",158.6],
["Ostatní činnost ve zdravotnictví",44.9],
["Všeobecná ambulantní péče",9.9],
["Fakultní nemocnice",1.5],
["Ostatní ambulantní péče",1.4],
["Lékařská služba první pomoci",1.1],
["Lázeňské léčebny, ozdravovny, sanatoria",0.3]]},
{"name":"Kraj Vysočina",
"id":"CZ063",
"data": [
["Ostatní nemocnice",2274.6],
["Zdravotnická záchranná služba",1463.6],
["Ostatní ústavní péče",197.5],
["Ostatní činnost ve zdravotnictví",39.2],
["Ostatní zdravotnická zařízení a služby pro zdravotnictví",33.1],
["Ostatní speciální zdravotnická péče",13.5],
["Další vzdělávání pracovníků ve zdravotnictví",10.6],
["Ostatní správa ve zdravotnictví jinde nezařazená",4.6],
["Prevence před drogami, alkoholem, nikotinem aj. závislostmi",0.3]]},
{"name":"Královéhradecký kraj",
"id":"CZ052",
"data": [
["Ostatní nemocnice",1847.7],
["Zdravotnická záchranná služba",1395.5],
["Lázeňské léčebny, ozdravovny, sanatoria",350.4],
["Ostatní činnost ve zdravotnictví",169.8],
["Léčebny dlouhodobě nemocných",55.7],
["Ostatní zdravotnická zařízení a služby pro zdravotnictví",36.8],
["Fakultní nemocnice",33.4],
["Lékařská služba první pomoci",15.8],
["Ostatní speciální zdravotnická péče",4.2],
["Lékárenská služba (léky, protézy a přístroje pro užití vně zdravotnických zařízení)",3.2],
["Všeobecná ambulantní péče",0.7]]},
{"name":"Liberecký kraj",
"id":"CZ051",
"data": [
["Zdravotnická záchranná služba",1673.4],
["Ostatní nemocnice",525.3],
["Hospice",262.2],
["Ostatní činnost ve zdravotnictví",35.5],
["Odborné léčebné ústavy",32.7],
["Lázeňské léčebny, ozdravovny, sanatoria",15.6],
["Lékařská služba první pomoci",1.7],
["Pomoc zdravotně postiženým a chronicky nemocným",0.6],
["Další vzdělávání pracovníků ve zdravotnictví",0.5],
["Ostatní zdravotnická zařízení a služby pro zdravotnictví",0.4],
["Lékárenská služba (léky, protézy a přístroje pro užití vně zdravotnických zařízení)",0.1],
["Transfúzní služba a tkáňová zařízení",0.1]]},
{"name":"Moravskoslezský kraj",
"id":"CZ080",
"data": [
["Ostatní nemocnice",1508.3],
["Zdravotnická záchranná služba",1139.1],
["Ostatní ústavní péče",123.7],
["Ostatní činnost ve zdravotnictví",59.6],
["Odborné léčebné ústavy",24.9],
["Prevence před drogami, alkoholem, nikotinem aj. závislostmi",5.7],
["Ostatní speciální zdravotnická péče",3],
["Fakultní nemocnice",0.3],
["Hygienická služba a ochrana veřejného zdraví",0.1]]},
{"name":"Olomoucký kraj",
"id":"CZ071",
"data": [
["Zdravotnická záchranná služba",984.5],
["Ostatní nemocnice",477.1],
["Ostatní ústavní péče",275.4],
["Odborné léčebné ústavy",243.7],
["Lékařská služba první pomoci",56.2],
["Ostatní činnost ve zdravotnictví",18.8],
["Prevence před drogami, alkoholem, nikotinem aj. závislostmi",13],
["Ostatní zdravotnická zařízení a služby pro zdravotnictví",7.7],
["Pomoc zdravotně postiženým a chronicky nemocným",1.5],
["Lázeňské léčebny, ozdravovny, sanatoria",1.4],
["Další vzdělávání pracovníků ve zdravotnictví",1.1],
["Národní program zdraví",0.9],
["Ostatní speciální zdravotnická péče",0.5],
["Lékárenská služba (léky, protézy a přístroje pro užití vně zdravotnických zařízení)",0.1]]},
{"name":"Pardubický kraj",
"id":"CZ053",
"data": [
["Ostatní nemocnice",1778.3],
["Zdravotnická záchranná služba",1279.6],
["Ostatní ústavní péče",311.3],
["Odborné léčebné ústavy",231.9],
["Ostatní činnost ve zdravotnictví",31.6],
["Ostatní speciální zdravotnická péče",4.6],
["Všeobecná ambulantní péče",0.4],
["Léčebny dlouhodobě nemocných",0.2],
["Prevence před drogami, alkoholem, nikotinem aj. závislostmi",0.1]]},
{"name":"Plzeňský kraj",
"id":"CZ032",
"data": [
["Ostatní nemocnice",2542.6],
["Zdravotnická záchranná služba",1843.6],
["Ostatní ústavní péče",96.8],
["Lékařská služba první pomoci",69.8],
["Ostatní činnost ve zdravotnictví",61.5],
["Odborné léčebné ústavy",48.1],
["Ostatní zdravotnická zařízení a služby pro zdravotnictví",29.5],
["Prevence před drogami, alkoholem, nikotinem aj. závislostmi",19.5],
["Léčebny dlouhodobě nemocných",16.2],
["Další vzdělávání pracovníků ve zdravotnictví",0.8],
["Lékárenská služba (léky, protézy a přístroje pro užití vně zdravotnických zařízení)",0.8],
["Všeobecná ambulantní péče",0.8],
["Pomoc zdravotně postiženým a chronicky nemocným",0.7]]},
{"name":"Středočeský kraj",
"id":"CZ020",
"data": [
["Ostatní nemocnice",1473.5],
["Zdravotnická záchranná služba",1274.7],
["Ostatní ústavní péče",225.8],
["Ostatní činnost ve zdravotnictví",97.5],
["Lékařská služba první pomoci",68.6],
["Všeobecná ambulantní péče",1.5],
["Fakultní nemocnice",0.5],
["Prevence před drogami, alkoholem, nikotinem aj. závislostmi",0.2]]},
{"name":"Ústecký kraj",
"id":"CZ042",
"data": [
["Zdravotnická záchranná služba",1142.7],
["Ostatní nemocnice",360.4],
["Ostatní ústavní péče",286.7],
["Lékařská služba první pomoci",73.6],
["Odborné léčebné ústavy",59.9],
["Ostatní činnost ve zdravotnictví",24.7],
["Hospice",5.7],
["Další vzdělávání pracovníků ve zdravotnictví",1.7],
["Mezinárodní spolupráce ve zdravotnictví",0.3],
["Prevence před drogami, alkoholem, nikotinem aj. závislostmi",0.3],
["Pomoc zdravotně postiženým a chronicky nemocným",0.1],
["Prevence HIV/AIDS",0.1]]},
{"name":"Zlínský kraj",
"id":"CZ072",
"data": [
["Zdravotnická záchranná služba",1170.2],
["Ostatní nemocnice",1082.7],
["Lékařská služba první pomoci",245.8],
["Ostatní činnost ve zdravotnictví",163.9],
["Ostatní ústavní péče",119.7],
["Prevence před drogami, alkoholem, nikotinem aj. závislostmi",15.1],
["Všeobecná ambulantní péče",0.7],
["Ostatní správa ve zdravotnictví jinde nezařazená",0.1]]}]}
