{
"Bezpečnost státu a právní ochrana": {
	"Bezpečnost a veřejný pořádek": {
		"Bezpečnost a veřejný pořádek": 2000000,
		"Ostatní správa v oblasti hospodářských opatření pro krizové stavy": 224564.71,
		"Ostatní správa v oblasti krizového řízení": 74488,
		"Ostatní záležitosti civilní připravenosti na krizové stavy": 22890987.58
	},
	"Požární ochrana a integrovaný záchranný systém": {
		"Ostatní záležitosti požární ochrany a integrovaného záchranného systému": 859458.76,
		"Požární ochrana - dobrovolná část": 15411000,
		"Požární ochrana - profesionální část": 533521
		}
	},
"Průmyslová a ostatní odvětví hospodářství": {
	"Doprava": {
		"Bezpečnost silničního provozu": 845000,
		"Ostatní správa v dopravě": 7155000,
		"Ostatní záležitosti v dopravě": 240669,
		"Ostatní záležitosti v silniční dopravě": 22190,
		"Provoz ostatních drah": 6020000,
		"Provoz veřejné silniční dopravy": 326107919,
		"Provoz veřejné železniční dopravy": 372428881,
		"Silnice": 1027342274.18
	},
	"Průmysl, stavebnictví, obchod a služby": {
		"Cestovní ruch": 3593526.2,
		"Úspora energie a obnovitelné zdroje": 4701000,
		"Pitná voda": 11494414.8,
		"Činnost ostatních orgánů státní správy ve vodním hospodářství": 13901831.76
	},
	"Všeobecné hospodářské záležitosti a ostatní ekonomické funkce": {
		"Podpora podnikání": 6899000
		}
	},
"Služby pro obyvatelstvo": {
	"Bydlení, komunální služby a územní rozvoj": {
		"Komunální služby a územní rozvoj jinde nezařazené": 390752,
		"Územní plánování": 1682519,
		"Územní rozvoj": 61283442.67
	},
	"Kultura, církve a sdělovací prostředky": {
		"Hudební činnost": 20750000,
		"Ostatní záležitosti kultury": 44572849.01,
		"Ostatní záležitosti sdělovacích prostředků": 5060530.81,
		"Rozhlas a televize": 1562231,
		"Zachování a obnova kulturních památek": 5321470,
		"Činnosti knihovnické": 25721000,
		"Činnosti muzeí a galerií": 94965542.63
	},
	"Ochrana životního prostředí": {
		"Chráněné části přírody": 4514128,
		"Ekologická výchova a osvěta": 921411.01,
		"Monitoring ochrany ovzduší": 437980,
		"Ochrana druhů a stanovišť": 934228,
		"Ostatní ekologické záležitosti": 201478.33,
		"Ostatní nakládání s odpady": 784510,
		"Ostatní činnosti k ochraně přírody a krajiny": 407528
	},
	"Tělovýchova a zájmová činnost": {
		"Ostatní tělovýchovná činnost": 31663638.9,
		"Využití volného času dětí a mládeže": 52077957
	},
	"Vzdělávání a školské služby": {
		"Domovy mládeže": 61026713,
		"Gymnazia": 434001523.36,
		"Internáty": 6977299,
		"Konzervatoře": 25107631,
		"Mateřské školy": 736906066,
		"Mateřské školy pro děti se speciálními vzdělávacími potřebami": 12796538,
		"Ostatní záležitosti vzdělávání": 200973633.62,
		"Ostatní školní stravování": 59945412,
		"První stupeň základních škol": 192709856.23,
		"Střediska praktického vyučování a školní hospodářství": 3113404,
		"Střední odborné školy": 698240810.46,
		"Střední školy a konzervatoře pro žáky se speciálními vzdělávacími potřebami": 62616208.4,
		"Střední školy poskytující střední vzdělání s výučním listem": 431223990.84,
		"Vyšší odborné školy": 35257682,
		"Zařízení výchovného poradenství": 39947169,
		"Základní umělecké školy": 266281611.22,
		"Základní školy": 1441642068,
		"Základní školy pro žáky se speciálními vzdělávacími potřebami": 173388894.4,
		"Školní družiny a kluby": 163707655,
		"Školní stravování": 280470843
	},
	"Zdravotnictví": {
		"Lékařská služba první pomoci": 11750000,
		"Ostatní nemocnice": 341852883.09,
		"Ostatní správa ve zdravotnictví jinde nezařazená": 12440,
		"Ostatní ústavní péče": 20990000,
		"Ostatní činnost ve zdravotnictví": 2558359.63,
		"Prevence před drogami, alkoholem, nikotinem aj. závislostmi": 2300000,
		"Všeobecná ambulantní péče": 156000,
		"Zdravotnická záchranná služba": 179743085.47
		}
	},
"Sociální věci a politika zaměstnanosti": {
	"Politika zaměstnanosti": {
		"Aktivní politika zaměstnanosti jinde nezařazená": 393250
	},
	"Sociální služby a společné činnosti v sociálním zabezpečení a politice zaměstnanosti": {
		"Azylové domy, nízkoprahová denní centra a noclehárny": 793000,
		"Chráněné bydlení": 8664997.92,
		"Denní stacionáře a centra denních služeb": 1374500,
		"Domovy pro osoby se zdravotním postižením a domovy se zvláštním režimem": 104948485.36,
		"Domovy pro seniory": 55175207.03,
		"Krizová pomoc": 35605771.6,
		"Odborné sociální poradenství": 4582200,
		"Osobní asistence, pečovatelská služba a podpora samostatného bydlení": 542000,
		"Ostatní služby a činnosti v oblasti sociální prevence": 86000,
		"Ostatní služby a činnosti v oblasti sociální péče": 37000,
		"Ostatní sociální péče a pomoc rodině a manželství": 308242,
		"Ostatní záležitosti sociálních věcí a politiky zaměstnanosti": 6443543.58,
		"Raná péče a sociálně aktivizační služby pro rodiny s dětmi": 114000,
		"Služby následné péče, terapeutické komunity a kontaktní centra": 50000,
		"Sociální poradenství pro staré občany": 255000,
		"Sociální péče a pomoc přistěhovalcům a vybraným etnikům": 1007346,
		"Sociálně terapeutické dílny": 1506107.39,
		"Terénní programy": 373000,
		"Týdenní stacionáře": 3232900,
		"Zařízení pro děti vyžadující okamžitou pomoc": 13993200,
		"Zařízení pro výkon pěstounské péče": 297000,
		"Ústavy péče pro mládež": 96361549.05
		}
	},
"Všeobecná veřejná správa a služby": {
	"Finanční operace": {
		"Obecné příjmy a výdaje z finančních operací": 43796016.74,
		"Ostatní finanční operace": 18692581.29,
		"Mezinárodní spolupráce (jinde nezařazená)": 1540000
	},
	"Ostatní činnosti": {
		"Finanční vypořádání minulých let": 31791030.97,
		"Ostatní činnosti jinde nezařazené": 17179814.89
	},
	"Státní moc, státní správa, územní samospráva a politické strany": {
		"Volby do Evropského parlamentu": 109641,
		"Volby do Parlamentu ČR": 22539,
		"Volby do zastupitelstev územních samosprávných celků": 104963,
		"Zastupitelstva krajů": 22834120.67,
		"Činnost regionální správy": 352256605.57
		}
	},
"Zemědělství, lesní hospodářství a rybářství": {
	"Zemědělství, lesní hospodářství a rybářství": {
		"Ostatní výdaje na lesní hospodářství": 1966706.99,
		"Ostatní záležitosti lesního hospodářství": 338678,
		"Pěstební činnost": 15198703
		}
	}
}
