{
"Bezpečnost státu a právní ochrana": {
	"Bezpečnost a veřejný pořádek": {
		"Bezpečnost a veřejný pořádek": 1550000
	},
	"Civilní připravenost na krizové stavy": {
		"Ochrana obyvatelstva": 1900000,
		"Ostatní správa v oblasti hospodářských opatření pro krizové stavy": 19927592,
		"Ostatní správa v oblasti krizového řízení": 318045,
		"Ostatní záležitosti civilní připravenosti na krizové stavy": 4800
	},
	"Požární ochrana a integrovaný záchranný systém": {
		"Požární ochrana - dobrovolná část": 12443503
		}
	},
"Průmyslová a ostatní odvětví hospodářství": {
	"Doprava": {
		"Bezpečnost silničního provozu": 881000,
		"Ostatní správa v dopravě": 6441892,
		"Ostatní záležitosti pozemních komunikací": 1000000,
		"Ostatní záležitosti v dopravě": 435660,
		"Ostatní záležitosti v silniční dopravě": 22901,
		"Provoz ostatních drah": 4750000,
		"Provoz veřejné silniční dopravy": 297800000,
		"Provoz veřejné železniční dopravy": 338070000,
		"Silnice": 895988772.8
	},
	"Průmysl, stavebnictví, obchod a služby": {
		"Cestovní ruch": 1181777,
		"Vnitřní obchod": 298123.8,
		"Úspora energie a obnovitelné zdroje": 3567000,
		"Pitná voda": 93835,
		"Činnost ostatních orgánů státní správy ve vodním hospodářství": 23631000
	},
	"Všeobecné hospodářské záležitosti a ostatní ekonomické funkce": {
		"Podpora podnikání": 1300000
		}
	},
"Služby pro obyvatelstvo": {
	"Bydlení, komunální služby a územní rozvoj": {
		"Komunální služby a územní rozvoj jinde nezařazené": 98020,
		"Územní plánování": 4631044,
		"Územní rozvoj": 106840722.5
	},
	"Kultura, církve a sdělovací prostředky": {
		"Hudební činnost": 19870000,
		"Ostatní záležitosti kultury": 35966241.97,
		"Ostatní záležitosti sdělovacích prostředků": 6769926,
		"Rozhlas a televize": 2184000,
		"Vydavatelská činnost": 155000,
		"Zachování a obnova kulturních památek": 59632814.9,
		"Činnosti knihovnické": 31465000,
		"Činnosti muzeí a galerií": 117485138.81
	},
	"Ochrana životního prostředí": {
		"Chráněné části přírody": 5891864,
		"Ekologická výchova a osvěta": 516500,
		"Monitoring ochrany ovzduší": 658555,
		"Ochrana druhů a stanovišť": 1996482,
		"Ostatní nakládání s odpady": 1385000,
		"Ostatní činnosti k ochraně ovzduší": 528000,
		"Ostatní činnosti k ochraně přírody a krajiny": 378262
	},
	"Tělovýchova a zájmová činnost": {
		"Ostatní tělovýchovná činnost": 24589029,
		"Využití volného času dětí a mládeže": 52779039
	},
	"Vzdělávání a školské služby": {
		"Domovy mládeže": 65173481,
		"Gymnazia": 376752658.4,
		"Internáty": 7189691,
		"Konzervatoře": 23550989,
		"Mateřské školy": 623964240,
		"Mateřské školy pro děti se speciálními vzdělávacími potřebami": 12770795,
		"Ostatní záležitosti vzdělávání": 154541559.88,
		"Ostatní školní stravování": 64744327,
		"První stupeň základních škol": 187762821,
		"Střediska praktického vyučování a školní hospodářství": 2884967,
		"Střední odborné školy": 998073006.87,
		"Střední školy a konzervatoře pro žáky se speciálními vzdělávacími potřebami": 60927176,
		"Střední školy poskytující střední vzdělání s výučním listem": 456644230.93,
		"Vyšší odborné školy": 38806915,
		"Vzdělávání národnostních menšin a multikulturní výchova": 295404.35,
		"Zařízení výchovného poradenství": 37337388.4,
		"Základní umělecké školy": 245476459,
		"Základní školy": 1360660614.64,
		"Základní školy pro žáky se speciálními vzdělávacími potřebami": 203128105.6,
		"Školní družiny a kluby": 140435143,
		"Školní stravování": 270387032
	},
	"Zdravotnictví": {
		"Lékařská služba první pomoci": 12849690,
		"Ostatní nemocnice": 213118499.56,
		"Ostatní správa ve zdravotnictví jinde nezařazená": 9220,
		"Ostatní ústavní péče": 25872000,
		"Ostatní činnost ve zdravotnictví": 12468100.42,
		"Prevence před drogami, alkoholem, nikotinem aj. závislostmi": 2800000,
		"Zdravotnická záchranná služba": 174735000
		}
	},
"Sociální věci a politika zaměstnanosti": {
	"Sociální služby a společné činnosti v sociálním zabezpečení a politice zaměstnanosti": {
		"Domovy pro osoby se zdravotním postižením a domovy se zvláštním režimem": 1361652.73,
		"Inspekce poskytování sociálních služeb": 1166000,
		"Krizová pomoc": 90928081.15,
		"Ostatní sociální péče a pomoc ostatním skupinám obyvatelstva": 545033,
		"Ostatní sociální péče a pomoc rodině a manželství": 1684310.4,
		"Ostatní správa v sociálním zabezpečení a politice zaměstnanosti": 2192968.56,
		"Ostatní záležitosti sociálních věcí a politiky zaměstnanosti": 51009908.16,
		"Sociální péče a pomoc přistěhovalcům a vybraným etnikům": 1004087,
		"Zařízení pro děti vyžadující okamžitou pomoc": 1974808,
		"Ústavy péče pro mládež": 94950697.6
		}
	},
"Všeobecná veřejná správa a služby": {
	"Finanční operace": {
		"Obecné příjmy a výdaje z finančních operací": 21025406.08,
		"Ostatní finanční operace": 12555715.27,
		"Pojištění funkčně nespecifikované": 777900
	},
	"Jiné veřejné služby a činnosti": {
		"Humanitární zahraniční pomoc přímá": 240000,
		"Mezinárodní spolupráce (jinde nezařazená)": 2501997
	},
	"Ostatní činnosti": {
		"Finanční vypořádání minulých let": 1795364.04,
		"Ostatní činnosti jinde nezařazené": 14256500
	},
	"Státní moc, státní správa, územní samospráva a politické strany": {
		"Ostatní všeobecná vnitřní správa jinde nezařazená": 139271.29,
		"Volby do zastupitelstev územních samosprávných celků": 2000,
		"Zastupitelstva krajů": 20637084.91,
		"Činnost regionální správy": 352265829.43
		}
	},
"Zemědělství, lesní hospodářství a rybářství": {
	"Zemědělství, lesní hospodářství a rybářství": {
		"Ostatní výdaje na lesní hospodářství": 2802816,
		"Ostatní záležitosti lesního hospodářství": 5104074.06,
		"Pěstební činnost": 14999820
		}
	}
}
